More Data Wrangling and Data Joins
…
---

# *slice()*

```r
slice(gapminder, -(1:3))
# A tibble: 1,701 × 6
   country     continent  year lifeExp      pop gdpPercap
   <fct>       <fct>     <int>   <dbl>    <int>     <dbl>
 1 Afghanistan Asia       1967    34.0 11537966      836.
 2 Afghanistan Asia       1972    36.1 13079460      740.
 3 Afghanistan Asia       1977    38.4 14880372      786.
 4 Afghanistan Asia       1982    39.9 12881816      978.
 5 Afghanistan Asia       1987    40.8 13867957      852.
 6 Afghanistan Asia       1992    41.7 16317921      649.
 7 Afghanistan Asia       1997    41.8 22227415      635.
 8 Afghanistan Asia       2002    42.1 25268405      727.
 9 Afghanistan Asia       2007    43.8 31889923      975.
10 Albania     Europe     1952    55.2  1282697     1601.
# … with 1,691 more rows
```
…
---

# *summarize()* vs. *mutate()*

*mutate()* : transforms all variable values but preserves the variable length (by group)

```r
gapminder %>%
  group_by(continent) %>%
* mutate(meanPop = mean(pop)/1000000)
# A tibble: 1,704 × 7
# Groups:   continent [5]
   country     continent  year lifeExp      pop gdpPercap meanPop
   <fct>       <fct>     <int>   <dbl>    <int>     <dbl>   <dbl>
 1 Afghanistan Asia       1952    28.8  8425333      779.    77.0
 2 Afghanistan Asia       1957    30.3  9240934      821.    77.0
 3 Afghanistan Asia       1962    32.0 10267083      853.    77.0
 4 Afghanistan Asia       1967    34.0 11537966      836.    77.0
 5 Afghanistan Asia       1972    36.1 13079460      740.    77.0
 6 Afghanistan Asia       1977    38.4 14880372      786.    77.0
 7 Afghanistan Asia       1982    39.9 12881816      978.    77.0
 8 Afghanistan Asia       1987    40.8 13867957      852.    77.0
 9 Afghanistan Asia       1992    41.7 16317921      649.    77.0
10 Afghanistan Asia       1997    41.8 22227415      635.    77.0
# … with 1,694 more rows
```
…
---

# *left_join()*

```r
flights2 %>% 
  left_join(airlines)
# A tibble: 336,776 × 9
    year month   day  hour origin dest  tailnum carrier name                    
   <int> <int> <int> <dbl> <chr>  <chr> <chr>   <chr>   <chr>                   
 1  2013     1     1     5 EWR    IAH   N14228  UA      United Air Lines Inc.   
 2  2013     1     1     5 LGA    IAH   N24211  UA      United Air Lines Inc.   
 3  2013     1     1     5 JFK    MIA   N619AA  AA      American Airlines Inc.  
 4  2013     1     1     5 JFK    BQN   N804JB  B6      JetBlue Airways         
 5  2013     1     1     6 LGA    ATL   N668DN  DL      Delta Air Lines Inc.    
 6  2013     1     1     5 EWR    ORD   N39463  UA      United Air Lines Inc.   
 7  2013     1     1     6 EWR    FLL   N516JB  B6      JetBlue Airways         
 8  2013     1     1     6 LGA    IAD   N829AS  EV      ExpressJet Airlines Inc.
 9  2013     1     1     6 JFK    MCO   N593JB  B6      JetBlue Airways         
10  2013     1     1     6 LGA    ORD   N3ALAA  AA      American Airlines Inc.  
# … with 336,766 more rows
```

---

# Keys: controlling how the tables are matched

```r
flights2 %>% left_join(planes, by = "tailnum")
# A tibble: 336,776 × 16
   year.x month   day  hour origin dest  tailnum carrier year.y type            
    <int> <int> <int> <dbl> <chr>  <chr> <chr>   <chr>    <int> <chr>           
 1   2013     1     1     5 EWR    IAH   N14228  UA        1999 Fixed wing mult…
 2   2013     1     1     5 LGA    IAH   N24211  UA        1998 Fixed wing mult…
 3   2013     1     1     5 JFK    MIA   N619AA  AA        1990 Fixed wing mult…
 4   2013     1     1     5 JFK    BQN   N804JB  B6        2012 Fixed wing mult…
 5   2013     1     1     6 LGA    ATL   N668DN  DL        1991 Fixed wing mult…
 6   2013     1     1     5 EWR    ORD   N39463  UA        2012 Fixed wing mult…
 7   2013     1     1     6 EWR    FLL   N516JB  B6        2000 Fixed wing mult…
 8   2013     1     1     6 LGA    IAD   N829AS  EV        1998 Fixed wing mult…
 9   2013     1     1     6 JFK    MCO   N593JB  B6        2004 Fixed wing mult…
10   2013     1     1     6 LGA    ORD   N3ALAA  AA          NA <NA>            
# … with 336,766 more rows, and 6 more variables: manufacturer <chr>,
#   model <chr>, engines <int>, seats <int>, speed <int>, engine <chr>
```

---

# Matching keys

```r
flights2 %>% left_join(airports, c("origin" = "faa"))
# A tibble: 336,776 × 15
    year month   day  hour origin dest  tailnum carrier name     lat   lon   alt
   <int> <int> <int> <dbl> <chr>  <chr> <chr>   <chr>   <chr>  <dbl> <dbl> <dbl>
 1  2013     1     1     5 EWR    IAH   N14228  UA      Newar…  40.7 -74.2    18
 2  2013     1     1     5 LGA    IAH   N24211  UA      La Gu…  40.8 -73.9    22
 3  2013     1     1     5 JFK    MIA   N619AA  AA      John …  40.6 -73.8    13
 4  2013     1     1     5 JFK    BQN   N804JB  B6      John …  40.6 -73.8    13
 5  2013     1     1     6 LGA    ATL   N668DN  DL      La Gu…  40.8 -73.9    22
 6  2013     1     1     5 EWR    ORD   N39463  UA      Newar…  40.7 -74.2    18
 7  2013     1     1     6 EWR    FLL   N516JB  B6      Newar…  40.7 -74.2    18
 8  2013     1     1     6 LGA    IAD   N829AS  EV      La Gu…  40.8 -73.9    22
 9  2013     1     1     6 JFK    MCO   N593JB  B6      John …  40.6 -73.8    13
10  2013     1     1     6 LGA    ORD   N3ALAA  AA      La Gu…  40.8 -73.9    22
# … with 336,766 more rows, and 3 more variables: tz <dbl>, dst <chr>,
#   tzone <chr>
```
…
