MLR Collinearity
…
```r
# nice correlation heatmaps
library(corrr)
library(scico)
library(paletteer)
supervisor %>%  # only numerical variables
  correlate() %>%
* stretch()
```
]
 
.panel2-cor-heatmap-auto[

```
# A tibble: 49 × 3
   x          y               r
   <chr>      <chr>       <dbl>
 1 overall    overall    NA    
 2 overall    complaints  0.825
 3 overall    privileges  0.426
 4 overall    learn       0.624
 5 overall    raises      0.590
 6 overall    critical    0.156
 7 overall    advance     0.155
 8 complaints overall     0.825
 9 complaints complaints NA    
10 complaints privileges  0.558
# … with 39 more rows
```
…
