Data wrangling with dplyr
…
```r
filter(babynames, name == "Ada" | name == "Rhea")
```

04:00

---

# Using *group_by()*

```r
babynames %>% 
* group_by(year, sex)
# A tibble: 1,924,665 × 5
# Groups:   year, sex [276]
    year sex   name          n   prop
   <dbl> <chr> <chr>     <int>  <dbl>
 1  1880 F     Mary       7065 0.0724
 2  1880 F     Anna       2604 0.0267
 3  1880 F     Emma       2003 0.0205
 4  1880 F     Elizabeth  1939 0.0199
 5  1880 F     Minnie     1746 0.0179
 6  1880 F     Margaret   1578 0.0162
 7  1880 F     Ida        1472 0.0151
 8  1880 F     Alice      1414 0.0145
 9  1880 F     Bertha     1320 0.0135
10  1880 F     Sarah      1288 0.0132
# … with 1,924,655 more rows
```

---

# Using *group_by()* along with *summarize()*

```r
babynames %>%
* group_by(year) %>%
* summarise(total = sum(n))
# A tibble: 138 × 2
    year  total
   <dbl>  <int>
 1  1880 201484
 2  1881 192696
 3  1882 221533
 4  1883 216946
 5  1884 243462
 6  1885 240854
 7  1886 255317
 8  1887 247394
 9  1888 299473
10  1889 288946
# … with 128 more rows
```
…
```r
arrange(babynames, n)
```

---

# *desc()*

Changes ordering from largest to smallest.

.scroll-box-10[

```r
*arrange(babynames, desc(n))
# A tibble: 1,924,665 × 6
# Groups:   year [138]
    year sex   name        n   prop percent
   <dbl> <chr> <chr>   <int>  <dbl>   <dbl>
 1  1947 F     Linda   99686 0.0548    5.48
 2  1948 F     Linda   96209 0.0552    5.52
 3  1947 M     James   94756 0.0510    5.10
 4  1957 M     Michael 92695 0.0424    4.24
 5  1947 M     Robert  91642 0.0493    4.93
 6  1949 F     Linda   91016 0.0518    5.18
 7  1956 M     Michael 90620 0.0423    4.23
 8  1958 M     Michael 90520 0.0420    4.20
 9  1948 M     James   88588 0.0497    4.97
10  1954 M     Michael 88514 0.0428    4.28
# … with 1,924,655 more rows
```
]
---

# Most common names in 1990

```r
babynames %>%
* filter(year == 1990) %>%
* arrange(desc(prop))
# A tibble: 24,719 × 6
# Groups:   year [1]
    year sex   name            n   prop percent
   <dbl> <chr> <chr>       <int>  <dbl>   <dbl>
 1  1990 M     Michael     65282 0.0303    3.03
 2  1990 M     Christopher 52332 0.0243    2.43
 3  1990 F     Jessica     46475 0.0226    2.26
 4  1990 F     Ashley      45558 0.0222    2.22
 5  1990 M     Matthew     44800 0.0208    2.08
 6  1990 M     Joshua      43216 0.0201    2.01
 7  1990 F     Brittany    36538 0.0178    1.78
 8  1990 F     Amanda      34408 0.0168    1.68
 9  1990 M     Daniel      33815 0.0157    1.57
10  1990 M     David       33742 0.0157    1.57
# … with 24,709 more rows
```

---

# *top_n()* 

Most common name in each year

```r
babynames %>%
* group_by(year) %>%
* top_n(1, prop)
# A tibble: 138 × 6
# Groups:   year [138]
    year sex   name      n   prop percent
   <dbl> <chr> <chr> <int>  <dbl>   <dbl>
 1  1880 M     John   9655 0.0815    8.15
 2  1881 M     John   8769 0.0810    8.10
 3  1882 M     John   9557 0.0783    7.83
 4  1883 M     John   8894 0.0791    7.91
 5  1884 M     John   9388 0.0765    7.65
 6  1885 M     John   8756 0.0755    7.55
 7  1886 M     John   9026 0.0758    7.58
 8  1887 M     John   8110 0.0742    7.42
 9  1888 M     John   9247 0.0712    7.12
10  1889 M     John   8548 0.0718    7.18
# … with 128 more rows
```
…
