Sentiment Analysis and Shiny Integration
…
tweet_df <- search_tweets(hashtag_to_search,
                          n = num_tweets_to_download,
                          include_rts = FALSE)

tweets_twitterdata = tweet_df %>%
  select(screen_name, text)
*tweets_twitterdata
```
]
 
.panel2-demo1-auto[

```
# A tibble: 195 × 2
   screen_name     text                                                         
   <chr>           <chr>                                                        
 1 one4ethanol     "@SarahBCalif yes-- take a step back to see #Biden exploitin…
 2 Soamras         "Thank you #Biden https://t.co/4QGYXAK2oc"                   
 3 OsintUpdates    "Trump:🚨 \"Putin playing Biden like a drum\"\n\n#Ukraina #U…
 4 affiliatesnews  "@V_Feuerstein Ohne Kommentar #Biden #Potus \nhttps://t.co/O…
 5 melly_katze     "@tgsBAD @easyrider_27 Ja eben\n#Biden nicht - dafür hat er …
 6 RMTonkavich     "Biden’s First Salvo of Russia Sanctions Hits With Thud, Not…
 7 ShaneGrochala   "#Breaking #BreakingNews #Putin #Ukraine #NATO #Russia #Euro…
 8 LindaMasseyFL   "#ThanksJoeBiden\n#Biden https://t.co/1Uw4Uhgfpo"            
 9 MichaelLettsUSA "Op-Ed: Always Remember Anti-Cop Cori Bush Told Us She Needs…
10 DrWho427        "Has #Biden lost any more of Europe today"                   
# … with 185 more rows
```
…
# Tidy into Words 
.panel1-demo2-auto[

```r
replace_reg <- "https?://[^\\s]+|&amp;|&lt;|&gt;|\bRT\\b"

# separate into words
*tweets_twitterdata
```
]
 
.panel2-demo2-auto[

```
# A tibble: 194 × 2
   screen_name     text                                                         
   <chr>           <chr>                                                        
 1 Soamras         "Thank you #Biden https://t.co/4QGYXAK2oc"                   
 2 OsintUpdates    "Trump:🚨 \"Putin playing Biden like a drum\"\n\n#Ukraina #U…
 3 affiliatesnews  "@V_Feuerstein Ohne Kommentar #Biden #Potus \nhttps://t.co/O…
 4 melly_katze     "@tgsBAD @easyrider_27 Ja eben\n#Biden nicht - dafür hat er …
 5 RMTonkavich     "Biden’s First Salvo of Russia Sanctions Hits With Thud, Not…
 6 ShaneGrochala   "#Breaking #BreakingNews #Putin #Ukraine #NATO #Russia #Euro…
 7 LindaMasseyFL   "#ThanksJoeBiden\n#Biden https://t.co/1Uw4Uhgfpo"            
 8 MichaelLettsUSA "Op-Ed: Always Remember Anti-Cop Cori Bush Told Us She Needs…
 9 DrWho427        "Has #Biden lost any more of Europe today"                   
10 A1_Children     "🇺🇦🆚️🇷🇺\n#روسيا_اوكرانيا\n#NATO #America\n#الحرب_العالميه_ال…
# … with 184 more rows
```
…
```r
replace_reg <- "https?://[^\\s]+|&amp;|&lt;|&gt;|\bRT\\b"

# separate into words
tweets_twitterdata %>%
* mutate(text = str_replace_all(text, replace_reg, ""))
```
]
 
.panel2-demo2-auto[

```
# A tibble: 194 × 2
   screen_name     text                                                         
   <chr>           <chr>                                                        
 1 Soamras         "Thank you #Biden "                                          
 2 OsintUpdates    "Trump:🚨 \"Putin playing Biden like a drum\"\n\n#Ukraina #U…
 3 affiliatesnews  "@V_Feuerstein Ohne Kommentar #Biden #Potus \n"              
 4 melly_katze     "@tgsBAD @easyrider_27 Ja eben\n#Biden nicht - dafür hat er …
 5 RMTonkavich     "Biden’s First Salvo of Russia Sanctions Hits With Thud, Not…
 6 ShaneGrochala   "#Breaking #BreakingNews #Putin #Ukraine #NATO #Russia #Euro…
 7 LindaMasseyFL   "#ThanksJoeBiden\n#Biden "                                   
 8 MichaelLettsUSA "Op-Ed: Always Remember Anti-Cop Cori Bush Told Us She Needs…
 9 DrWho427        "Has #Biden lost any more of Europe today"                   
10 A1_Children     "🇺🇦🆚️🇷🇺\n#روسيا_اوكرانيا\n#NATO #America\n#الحرب_العالميه_ال…
# … with 184 more rows
```
…
```r
replace_reg <- "https?://[^\\s]+|&amp;|&lt;|&gt;|\bRT\\b"

# separate into words
tweets_twitterdata %>%
  mutate(text = str_replace_all(text, replace_reg, "")) %>%
* unnest_tokens(word, text, token = "words")
```
]
 
.panel2-demo2-auto[

```
# A tibble: 4,487 × 2
   screen_name  word   
   <chr>        <chr>  
 1 Soamras      thank  
 2 Soamras      you    
 3 Soamras      biden  
 4 OsintUpdates trump  
 5 OsintUpdates putin  
 6 OsintUpdates playing
 7 OsintUpdates biden  
 8 OsintUpdates like   
 9 OsintUpdates a      
10 OsintUpdates drum   
# … with 4,477 more rows
```
…
```r
replace_reg <- "https?://[^\\s]+|&amp;|&lt;|&gt;|\bRT\\b"

# separate into words
tweets_twitterdata %>%
  mutate(text = str_replace_all(text, replace_reg, "")) %>%
  unnest_tokens(word, text, token = "words") %>%
* anti_join(stop_words, by = "word")
```
]
 
.panel2-demo2-auto[

```
# A tibble: 3,001 × 2
   screen_name  word               
   <chr>        <chr>              
 1 Soamras      biden              
 2 OsintUpdates trump              
 3 OsintUpdates putin              
 4 OsintUpdates playing            
 5 OsintUpdates biden              
 6 OsintUpdates drum               
 7 OsintUpdates ukraina            
 8 OsintUpdates ukrainerussiacrisis
 9 OsintUpdates putin              
10 OsintUpdates russiaukrainecrisis
# … with 2,991 more rows
```
…
count: false
 
# Plot the top words 
.panel1-demo3-auto[

```r
# Plot of top 10 words
*words %>% count(word, sort=TRUE)
```
]
 
.panel2-demo3-auto[

```
# A tibble: 1,643 × 2
   word                    n
   <chr>               <int>
 1 biden                 207
 2 putin                  71
 3 russia                 56
 4 ukraine                53
 5 trump                  36
 6 de                     22
 7 la                     19
 8 sanctions              19
 9 nato                   18
10 ukrainerussiacrisis    18
# … with 1,633 more rows
```
…
---

# Run the function

```r
sentiment_bing(tweets_twitterdata$text)
$score
[1] -78

$type
[1] "NoZero"

$tweet_tbl
# A tibble: 159 × 4
   word          sentiment     n score
   <chr>         <chr>     <int> <dbl>
 1 trump         positive     36    36
 2 die           negative      8    -8
 3 aggression    negative      6    -6
 4 traitor       negative      6    -6
 5 breaking      negative      5    -5
 6 authoritarian negative      3    -3
 7 destroy       negative      3    -3
 8 threat        negative      3    -3
 9 weak          negative      3    -3
10 attack        negative      2    -2
# … with 149 more rows
```
…
