More date and time and strings
…
---

# Wide to Long 

```r
energy_narrow <- energy %>%
  pivot_longer( cols = `100_Nevada_Street`:Wilson_House, names_to = "building", values_to = "energyKWH")
```

```r
energy_narrow
# A tibble: 2,880,578 × 10
   Timestamp            year month weekOfYear dayOfMonth dayWeek timeH…¹ timeM…²
   <dttm>              <dbl> <dbl>      <dbl>      <dbl> <fct>     <dbl>   <dbl>
 1 2015-09-01 00:00:00  2015     9         35          1 Tues          0       0
 2 2015-09-01 00:00:00  2015     9         35          1 Tues          0       0
 3 2015-09-01 00:00:00  2015     9         35          1 Tues          0       0
 4 2015-09-01 00:00:00  2015     9         35          1 Tues          0       0
 5 2015-09-01 00:00:00  2015     9         35          1 Tues          0       0
 6 2015-09-01 00:00:00  2015     9         35          1 Tues          0       0
 7 2015-09-01 00:00:00  2015     9         35          1 Tues          0       0
 8 2015-09-01 00:00:00  2015     9         35          1 Tues          0       0
 9 2015-09-01 00:00:00  2015     9         35          1 Tues          0       0
10 2015-09-01 00:00:00  2015     9         35          1 Tues          0       0
# … with 2,880,568 more rows, 2 more variables: building <chr>,
#   energyKWH <dbl>, and abbreviated variable names ¹​timeHour, ²​timeMinute
```
…
## Top ten destination
.panel1-demo1-auto[

```r
data("flights", package = "nycflights13")

*flights
```
]
 
.panel2-demo1-auto[

```
# A tibble: 336,776 × 19
    year month   day dep_time sched_de…¹ dep_d…² arr_t…³ sched…⁴ arr_d…⁵ carrier
   <int> <int> <int>    <int>      <int>   <dbl>   <int>   <int>   <dbl> <chr>  
 1  2013     1     1      517        515       2     830     819      11 UA     
 2  2013     1     1      533        529       4     850     830      20 UA     
 3  2013     1     1      542        540       2     923     850      33 AA     
 4  2013     1     1      544        545      -1    1004    1022     -18 B6     
 5  2013     1     1      554        600      -6     812     837     -25 DL     
 6  2013     1     1      554        558      -4     740     728      12 UA     
 7  2013     1     1      555        600      -5     913     854      19 B6     
 8  2013     1     1      557        600      -3     709     723     -14 EV     
 9  2013     1     1      557        600      -3     838     846      -8 B6     
10  2013     1     1      558        600      -2     753     745       8 AA     
# … with 336,766 more rows, 9 more variables: flight <int>, tailnum <chr>,
#   origin <chr>, dest <chr>, air_time <dbl>, distance <dbl>, hour <dbl>,
#   minute <dbl>, time_hour <dttm>, and abbreviated variable names
#   ¹​sched_dep_time, ²​dep_delay, ³​arr_time, ⁴​sched_arr_time, ⁵​arr_delay
```
…
## Top ten destination
.panel1-demo1-auto[

```r
data("flights", package = "nycflights13")

flights %>%
* count(dest)
```
]
 
.panel2-demo1-auto[

```
# A tibble: 105 × 2
   dest      n
   <chr> <int>
 1 ABQ     254
 2 ACK     265
 3 ALB     439
 4 ANC       8
 5 ATL   17215
 6 AUS    2439
 7 AVL     275
 8 BDL     443
 9 BGR     375
10 BHM     297
# … with 95 more rows
```
…
```r
top_dest <- flights %>%
  count(dest) %>%
  slice_max(n, n = 10)

*flights
```
]
 
.panel2-demo2-auto[

```
# A tibble: 336,776 × 19
    year month   day dep_time sched_de…¹ dep_d…² arr_t…³ sched…⁴ arr_d…⁵ carrier
   <int> <int> <int>    <int>      <int>   <dbl>   <int>   <int>   <dbl> <chr>  
 1  2013     1     1      517        515       2     830     819      11 UA     
 2  2013     1     1      533        529       4     850     830      20 UA     
 3  2013     1     1      542        540       2     923     850      33 AA     
 4  2013     1     1      544        545      -1    1004    1022     -18 B6     
 5  2013     1     1      554        600      -6     812     837     -25 DL     
 6  2013     1     1      554        558      -4     740     728      12 UA     
 7  2013     1     1      555        600      -5     913     854      19 B6     
 8  2013     1     1      557        600      -3     709     723     -14 EV     
 9  2013     1     1      557        600      -3     838     846      -8 B6     
10  2013     1     1      558        600      -2     753     745       8 AA     
# … with 336,766 more rows, 9 more variables: flight <int>, tailnum <chr>,
#   origin <chr>, dest <chr>, air_time <dbl>, distance <dbl>, hour <dbl>,
#   minute <dbl>, time_hour <dttm>, and abbreviated variable names
#   ¹​sched_dep_time, ²​dep_delay, ³​arr_time, ⁴​sched_arr_time, ⁵​arr_delay
```
…
```r
top_dest <- flights %>%
  count(dest) %>%
  slice_max(n, n = 10)

flights %>%
* semi_join(top_dest)
```
]
 
.panel2-demo2-auto[

```
# A tibble: 141,145 × 19
    year month   day dep_time sched_de…¹ dep_d…² arr_t…³ sched…⁴ arr_d…⁵ carrier
   <int> <int> <int>    <int>      <int>   <dbl>   <int>   <int>   <dbl> <chr>  
 1  2013     1     1      542        540       2     923     850      33 AA     
 2  2013     1     1      554        600      -6     812     837     -25 DL     
 3  2013     1     1      554        558      -4     740     728      12 UA     
 4  2013     1     1      555        600      -5     913     854      19 B6     
 5  2013     1     1      557        600      -3     838     846      -8 B6     
 6  2013     1     1      558        600      -2     753     745       8 AA     
 7  2013     1     1      558        600      -2     924     917       7 UA     
 8  2013     1     1      558        600      -2     923     937     -14 UA     
 9  2013     1     1      559        559       0     702     706      -4 B6     
10  2013     1     1      600        600       0     851     858      -7 B6     
# … with 141,135 more rows, 9 more variables: flight <int>, tailnum <chr>,
#   origin <chr>, dest <chr>, air_time <dbl>, distance <dbl>, hour <dbl>,
#   minute <dbl>, time_hour <dttm>, and abbreviated variable names
#   ¹​sched_dep_time, ²​dep_delay, ³​arr_time, ⁴​sched_arr_time, ⁵​arr_delay
```
…
flights %>%
  semi_join(top_dest) %>%
* mutate(sch_datetime = make_datetime(
*   year = year, month = month,
*   day = day, hour = hour,
*   min = minute)
*   )
```
]
 
.panel2-demo2-auto[

```
# A tibble: 141,145 × 20
    year month   day dep_time sched_de…¹ dep_d…² arr_t…³ sched…⁴ arr_d…⁵ carrier
   <int> <int> <int>    <int>      <int>   <dbl>   <int>   <int>   <dbl> <chr>  
 1  2013     1     1      542        540       2     923     850      33 AA     
 2  2013     1     1      554        600      -6     812     837     -25 DL     
 3  2013     1     1      554        558      -4     740     728      12 UA     
 4  2013     1     1      555        600      -5     913     854      19 B6     
 5  2013     1     1      557        600      -3     838     846      -8 B6     
 6  2013     1     1      558        600      -2     753     745       8 AA     
 7  2013     1     1      558        600      -2     924     917       7 UA     
 8  2013     1     1      558        600      -2     923     937     -14 UA     
 9  2013     1     1      559        559       0     702     706      -4 B6     
10  2013     1     1      600        600       0     851     858      -7 B6     
# … with 141,135 more rows, 10 more variables: flight <int>, tailnum <chr>,
#   origin <chr>, dest <chr>, air_time <dbl>, distance <dbl>, hour <dbl>,
#   minute <dbl>, time_hour <dttm>, sch_datetime <dttm>, and abbreviated
#   variable names ¹​sched_dep_time, ²​dep_delay, ³​arr_time, ⁴​sched_arr_time,
#   ⁵​arr_delay
```
…
flights %>%
  semi_join(top_dest) %>%
  mutate(sch_datetime = make_datetime(
    year = year, month = month,
    day = day, hour = hour,
    min = minute)
    ) %>%
* select(dest, sch_datetime)
```
]
 
.panel2-demo2-auto[

```
# A tibble: 141,145 × 2
   dest  sch_datetime       
   <chr> <dttm>             
 1 MIA   2013-01-01 05:40:00
 2 ATL   2013-01-01 06:00:00
 3 ORD   2013-01-01 05:58:00
 4 FLL   2013-01-01 06:00:00
 5 MCO   2013-01-01 06:00:00
 6 ORD   2013-01-01 06:00:00
 7 LAX   2013-01-01 06:00:00
 8 SFO   2013-01-01 06:00:00
 9 BOS   2013-01-01 05:59:00
10 FLL   2013-01-01 06:00:00
# … with 141,135 more rows
```
…
.panel2-demo2-auto[

```
# A tibble: 141,145 × 2
# Groups:   dest [10]
   dest  sch_datetime       
   <chr> <dttm>             
 1 MIA   2013-01-01 05:40:00
 2 ATL   2013-01-01 06:00:00
 3 ORD   2013-01-01 05:58:00
 4 FLL   2013-01-01 06:00:00
 5 MCO   2013-01-01 06:00:00
 6 ORD   2013-01-01 06:00:00
 7 LAX   2013-01-01 06:00:00
 8 SFO   2013-01-01 06:00:00
 9 BOS   2013-01-01 05:59:00
10 FLL   2013-01-01 06:00:00
# … with 141,135 more rows
```
…
.panel2-demo2-auto[

```
# A tibble: 141,145 × 2
# Groups:   dest [10]
   dest  sch_datetime       
   <chr> <dttm>             
 1 MIA   2013-01-01 05:40:00
 2 ORD   2013-01-01 05:58:00
 3 BOS   2013-01-01 05:59:00
 4 ATL   2013-01-01 06:00:00
 5 FLL   2013-01-01 06:00:00
 6 MCO   2013-01-01 06:00:00
 7 ORD   2013-01-01 06:00:00
 8 LAX   2013-01-01 06:00:00
 9 SFO   2013-01-01 06:00:00
10 FLL   2013-01-01 06:00:00
# … with 141,135 more rows
```
…
.panel2-demo2-auto[

```
# A tibble: 141,145 × 4
# Groups:   dest [10]
   dest  sch_datetime        diff1 diff2
   <chr> <dttm>              <dbl> <dbl>
 1 MIA   2013-01-01 05:40:00    NA    NA
 2 ORD   2013-01-01 05:58:00    NA    NA
 3 BOS   2013-01-01 05:59:00    NA    NA
 4 ATL   2013-01-01 06:00:00    NA    NA
 5 FLL   2013-01-01 06:00:00    NA    NA
 6 MCO   2013-01-01 06:00:00    NA    NA
 7 ORD   2013-01-01 06:00:00     2     2
 8 LAX   2013-01-01 06:00:00    NA    NA
 9 SFO   2013-01-01 06:00:00    NA    NA
10 FLL   2013-01-01 06:00:00     0     0
# … with 141,135 more rows
```
…
