Regression
…
```r
glance(k.means)
# A tibble: 1 × 4
  totss tot.withinss betweenss  iter
  <dbl>        <dbl>     <dbl> <int>
1    98         62.2      35.8     1
```

---

# `augment` from `broom` package

```r
augment(k.means, data = USAData)
# A tibble: 50 × 4
   .rownames    Murder UrbanPop .cluster
   <chr>         <dbl>    <dbl> <fct>   
 1 Alabama      1.24     -0.521 1       
 2 Alaska       0.508    -1.21  1       
 3 Arizona      0.0716    0.999 1       
 4 Arkansas     0.232    -1.07  2       
 5 California   0.278     1.76  1       
 6 Colorado     0.0257    0.861 1       
 7 Connecticut -1.03      0.792 2       
 8 Delaware    -0.433     0.446 2       
 9 Florida      1.75      0.999 1       
10 Georgia      2.21     -0.383 1       
# … with 40 more rows
```
…
