Functions
…
--

.scroll-box-10[

```r
gutenberg_download(768)
# A tibble: 12,342 × 2
   gutenberg_id text               
          <int> <chr>              
 1          768 "Wuthering Heights"
 2          768 ""                 
 3          768 "by Emily Brontë"  
 4          768 ""                 
 5          768 ""                 
 6          768 ""                 
 7          768 ""                 
 8          768 "CHAPTER I"        
 9          768 ""                 
10          768 ""                 
# … with 12,332 more rows
```
…
count: false
 
## Visualizing Word Counts in Alice's Adventures in Wonderland
.panel1-demo1-auto[

```r
*alice
```
]
 
.panel2-demo1-auto[

```
# A tibble: 3,375 × 1
   text                                  
   <chr>                                 
 1 "Alice’s Adventures in Wonderland"    
 2 ""                                    
 3 "by Lewis Carroll"                    
 4 ""                                    
 5 "THE MILLENNIUM FULCRUM EDITION 3.0"  
 6 ""                                    
 7 "Contents"                            
 8 ""                                    
 9 " CHAPTER I.     Down the Rabbit-Hole"
10 " CHAPTER II.    The Pool of Tears"   
# … with 3,365 more rows
```
…
## Visualizing Word Counts in Alice's Adventures in Wonderland
.panel1-demo1-auto[

```r
alice %>%
* mutate(linenumber=row_number())
```
]
 
.panel2-demo1-auto[

```
# A tibble: 3,375 × 2
   text                                   linenumber
   <chr>                                       <int>
 1 "Alice’s Adventures in Wonderland"              1
 2 ""                                              2
 3 "by Lewis Carroll"                              3
 4 ""                                              4
 5 "THE MILLENNIUM FULCRUM EDITION 3.0"            5
 6 ""                                              6
 7 "Contents"                                      7
 8 ""                                              8
 9 " CHAPTER I.     Down the Rabbit-Hole"          9
10 " CHAPTER II.    The Pool of Tears"            10
# … with 3,365 more rows
```
…
## Visualizing Word Counts in Alice's Adventures in Wonderland
.panel1-demo1-auto[

```r
alice %>%
  mutate(linenumber=row_number()) %>%
* unnest_tokens(word, text)
```
]
 
.panel2-demo1-auto[

```
# A tibble: 26,774 × 2
   linenumber word      
        <int> <chr>     
 1          1 alice’s   
 2          1 adventures
 3          1 in        
 4          1 wonderland
 5          3 by        
 6          3 lewis     
 7          3 carroll   
 8          5 the       
 9          5 millennium
10          5 fulcrum   
# … with 26,764 more rows
```
…
## Visualizing Word Counts in Alice's Adventures in Wonderland
.panel1-demo1-auto[

```r
alice %>%
  mutate(linenumber=row_number()) %>%
  unnest_tokens(word, text) %>%
* anti_join(stop_words)
```
]
 
.panel2-demo1-auto[

```
# A tibble: 8,437 × 2
   linenumber word      
        <int> <chr>     
 1          1 alice’s   
 2          1 adventures
 3          1 wonderland
 4          3 lewis     
 5          3 carroll   
 6          5 millennium
 7          5 fulcrum   
 8          5 edition   
 9          5 3.0       
10          7 contents  
# … with 8,427 more rows
```
…
```r
alice %>%
  mutate(linenumber=row_number()) %>%
  unnest_tokens(word, text) %>%
  anti_join(stop_words) %>%
* count(word, sort=TRUE)
```
]
 
.panel2-demo1-auto[

```
# A tibble: 2,321 × 2
   word        n
   <chr>   <int>
 1 alice     386
 2 time       71
 3 queen      68
 4 king       61
 5 don’t      60
 6 it’s       57
 7 mock       57
 8 i’m        56
 9 turtle     56
10 gryphon    55
# … with 2,311 more rows
```
…
--

.scroll-box-10[

```r
(mybook <- word_count(book_id= 2600))
# A tibble: 17,479 × 2
   word         n
   <chr>    <int>
 1 prince    1891
 2 pierre    1796
 3 natásha   1098
 4 andrew    1047
 5 time       929
 6 princess   916
 7 french     881
 8 eyes       827
 9 chapter    732
10 rostóv     719
# … with 17,469 more rows
```
…
