More Data Visualization Tools
…
.footnote[Source: https://usafacts.org/visualizations/coronavirus-covid-19-spread-map/]

---

# Combining datasets

We need to add the covid info to the state polygon data set

```r
covid_data <- left_join(states, covid, by = c("region" = "States"))
```

```
# A tibble: 15,537 × 13
   long   lat group order region  subregion `7.day.average.ca… `7.day.average.d…
  <dbl> <dbl> <dbl> <int> <chr>   <chr>                  <dbl>             <int>
1 -87.5  30.4     1     1 alabama <NA>                   10338                19
2 -87.5  30.4     1     2 alabama <NA>                   10338                19
3 -87.5  30.4     1     3 alabama <NA>                   10338                19
4 -87.5  30.3     1     4 alabama <NA>                   10338                19
5 -87.6  30.3     1     5 alabama <NA>                   10338                19
# … with 15,532 more rows, and 5 more variables: TotalCases <dbl>,
#   TotalDeaths <dbl>, Population <dbl>, Deaths.per.100k <dbl>,
#   Cases.per.100k <dbl>
```
…
