Regression
…
Residual standard error: 25.14 on 390 degrees of freedom
Multiple R-squared:  0.3378,	Adjusted R-squared:  0.3361 
F-statistic:   199 on 1 and 390 DF,  p-value: < 2.2e-16
```

---

```r
predict(lm_fit, new_data = db_slr)
# A tibble: 392 × 1
   .pred
   <dbl>
 1  113.
 2  124.
 3  112.
 4  181.
 5  227.
 6  125.
 7  134.
 8  112.
 9  114.
10  135.
# … with 382 more rows
```

---

# Confidence and Prediction intervals

.pull-left[
.code90[

```r
predict(lm_fit, new_data = db_slr, 
*       type = "conf_int")
# A tibble: 392 × 2
   .pred_lower .pred_upper
         <dbl>       <dbl>
 1        110.        116.
 2        122.        127.
 3        109.        115.
 4        173.        190.
 5        212.        241.
 6        123.        128.
 7        131.        137.
 8        109.        115.
 9        111.        116.
10        132.        138.
# … with 382 more rows
```
]
]
.pull-right[
.code90[

```r
predict(lm_fit, new_data = db_slr, 
*       type = "pred_int")
# A tibble: 392 × 2
   .pred_lower .pred_upper
         <dbl>       <dbl>
 1        63.7        163.
 2        74.9        174.
 3        62.8        162.
 4       131.         231.
 5       175.         278.
 6        76.0        175.
 7        84.3        183.
 8        62.1        161.
 9        64.0        163.
10        85.0        184.
# … with 382 more rows
```
…
---

# Predict new values

```r
predict(lm_fit2, new_data = db_mlr)
# A tibble: 392 × 1
   .pred
   <dbl>
 1  105.
 2  128.
 3  105.
 4  186.
 5  227.
 6  136.
 7  138.
 8  106.
 9  115.
10  137.
# … with 382 more rows
```

---

# Actual and predicted values

```r
bind_cols(
  predict(lm_fit, new_data = db_mlr), db_mlr) %>% select(glucose, .pred)
# A tibble: 392 × 2
   glucose .pred
     <dbl> <dbl>
 1      89  113.
 2     137  124.
 3      78  112.
 4     197  181.
 5     189  227.
 6     166  125.
 7     118  134.
 8     103  112.
 9     115  114.
10     126  135.
# … with 382 more rows
```
…
