Model Accuracy and Evaluation
…
```r
test_features <- fire_test %>% select(temperature, isi) %>% data.frame()
fire_pred <- predict(fire_fit, test_features, type = "raw")
fire_results <- fire_test %>% 
  select(classes) %>% 
  bind_cols(predicted = fire_pred)
```

---

# Compare the known labels and predicted labels

```r
fire_results
# A tibble: 61 × 2
   classes  predicted
   <chr>    <fct>    
 1 not fire not fire 
 2 not fire not fire 
 3 fire     fire     
 4 not fire not fire 
 5 not fire not fire 
 6 not fire not fire 
 7 fire     fire     
 8 fire     fire     
 9 not fire not fire 
10 not fire not fire 
# … with 51 more rows
```
…
---

## Choosing K

```r
cv_metrics %>%
  group_by(.metric) %>%
  slice_max(mean) 
# A tibble: 30 × 7
# Groups:   .metric [6]
   neighbors .metric  .estimator  mean     n std_err .config              
       <dbl> <chr>    <chr>      <dbl> <int>   <dbl> <chr>                
 1         3 accuracy binary     0.983     5  0.0167 Preprocessor1_Model03
 2         4 accuracy binary     0.983     5  0.0167 Preprocessor1_Model04
 3         3 kap      binary     0.967     5  0.0333 Preprocessor1_Model03
 4         4 kap      binary     0.967     5  0.0333 Preprocessor1_Model04
 5         3 mcc      binary     0.969     5  0.0310 Preprocessor1_Model03
 6         4 mcc      binary     0.969     5  0.0310 Preprocessor1_Model04
 7         3 ppv      binary     1         5  0      Preprocessor1_Model03
 8         4 ppv      binary     1         5  0      Preprocessor1_Model04
 9         7 ppv      binary     1         5  0      Preprocessor1_Model07
10         8 ppv      binary     1         5  0      Preprocessor1_Model08
# … with 20 more rows
```
…
