Basic String Manipulation
…
```r
# detect whether a comma is present
*murders %>% mutate(population = str_replace_all(population, ",", ""),
*                  total = str_replace_all(total, ",", "")) %>% mutate_at(vars(2:3), as.double)
# A tibble: 51 × 4
   state                population total murder_rate
   <chr>                     <dbl> <dbl>       <dbl>
 1 Alabama                 4853875   348         7.2
 2 Alaska                   737709    59         8  
 3 Arizona                 6817565   309         4.5
 4 Arkansas                2977853   181         6.1
 5 California             38993940  1861         4.8
 6 Colorado                5448819   176         3.2
 7 Connecticut             3584730   117         3.3
 8 Delaware                 944076    63         6.7
 9 District of Columbia     670377   162        24.2
10 Florida                20244914  1041         5.1
# … with 41 more rows
```
…
