Advanced Web Scraping
…
count: false
 
## Tidy further
.panel1-demo3-auto[

```r
*df_movies
```
]
 
.panel2-demo3-auto[

```
# A tibble: 6,336 × 6
   ...1  ReleaseDate  Movie                              Produ…¹ Domes…² World…³
   <chr> <chr>        <chr>                              <chr>   <chr>   <chr>  
 1 1     Apr 23, 2019 Avengers: Endgame                  $400,0… $858,3… $2,797…
 2 2     May 20, 2011 Pirates of the Caribbean: On Stra… $379,0… $241,0… $1,045…
 3 3     Apr 22, 2015 Avengers: Age of Ultron            $365,0… $459,0… $1,395…
 4 4     Dec 16, 2015 Star Wars Ep. VII: The Force Awak… $306,0… $936,6… $2,064…
 5 5     Apr 25, 2018 Avengers: Infinity War             $300,0… $678,8… $2,048…
 6 6     May 24, 2007 Pirates of the Caribbean: At Worl… $300,0… $309,4… $960,9…
 7 7     Nov 13, 2017 Justice League                     $300,0… $229,0… $655,9…
 8 8     Oct 6, 2015  Spectre                            $300,0… $200,0… $879,0…
 9 9     Jul 11, 2023 Mission: Impossible Dead Reckonin… $290,0… $0      $0     
10 10    Dec 18, 2019 Star Wars: The Rise of Skywalker   $275,0… $515,2… $1,072…
# … with 6,326 more rows, and abbreviated variable names ¹​ProductionBudget,
#   ²​DomesticGross, ³​WorldwideGross
```
…
## Tidy further
.panel1-demo3-auto[

```r
df_movies %>%
* rename(ID = `...1`)
```
]
 
.panel2-demo3-auto[

```
# A tibble: 6,336 × 6
   ID    ReleaseDate  Movie                              Produ…¹ Domes…² World…³
   <chr> <chr>        <chr>                              <chr>   <chr>   <chr>  
 1 1     Apr 23, 2019 Avengers: Endgame                  $400,0… $858,3… $2,797…
 2 2     May 20, 2011 Pirates of the Caribbean: On Stra… $379,0… $241,0… $1,045…
 3 3     Apr 22, 2015 Avengers: Age of Ultron            $365,0… $459,0… $1,395…
 4 4     Dec 16, 2015 Star Wars Ep. VII: The Force Awak… $306,0… $936,6… $2,064…
 5 5     Apr 25, 2018 Avengers: Infinity War             $300,0… $678,8… $2,048…
 6 6     May 24, 2007 Pirates of the Caribbean: At Worl… $300,0… $309,4… $960,9…
 7 7     Nov 13, 2017 Justice League                     $300,0… $229,0… $655,9…
 8 8     Oct 6, 2015  Spectre                            $300,0… $200,0… $879,0…
 9 9     Jul 11, 2023 Mission: Impossible Dead Reckonin… $290,0… $0      $0     
10 10    Dec 18, 2019 Star Wars: The Rise of Skywalker   $275,0… $515,2… $1,072…
# … with 6,326 more rows, and abbreviated variable names ¹​ProductionBudget,
#   ²​DomesticGross, ³​WorldwideGross
```
…
.panel2-demo3-auto[

```
# A tibble: 6,336 × 8
   ID    ReleaseDate Movie               Produ…¹ Domes…² World…³ Month…⁴ YearO…⁵
   <chr> <date>      <chr>                 <dbl>   <dbl>   <dbl> <ord>     <dbl>
 1 1     2019-04-23  Avengers: Endgame    4   e8  8.58e8  2.80e9 Apr        2019
 2 2     2011-05-20  Pirates of the Car…  3.79e8  2.41e8  1.05e9 May        2011
 3 3     2015-04-22  Avengers: Age of U…  3.65e8  4.59e8  1.40e9 Apr        2015
 4 4     2015-12-16  Star Wars Ep. VII:…  3.06e8  9.37e8  2.06e9 Dec        2015
 5 5     2018-04-25  Avengers: Infinity…  3   e8  6.79e8  2.05e9 Apr        2018
 6 6     2007-05-24  Pirates of the Car…  3   e8  3.09e8  9.61e8 May        2007
 7 7     2017-11-13  Justice League       3   e8  2.29e8  6.56e8 Nov        2017
 8 8     2015-10-06  Spectre              3   e8  2.00e8  8.79e8 Oct        2015
 9 9     2023-07-11  Mission: Impossibl…  2.9 e8  0       0      Jul        2023
10 10    2019-12-18  Star Wars: The Ris…  2.75e8  5.15e8  1.07e9 Dec        2019
# … with 6,326 more rows, and abbreviated variable names ¹​ProductionBudget,
#   ²​DomesticGross, ³​WorldwideGross, ⁴​MonthOfRelease, ⁵​YearOfRelease
```
…
.panel2-demo3-auto[

```
# A tibble: 6,336 × 2
   MonthOfRelease DomesticGross
   <ord>                  <dbl>
 1 Apr                858373000
 2 May                241071802
 3 Apr                459005868
 4 Dec                936662225
 5 Apr                678815482
 6 May                309420425
 7 Nov                229024295
 8 Oct                200074175
 9 Jul                        0
10 Dec                515202542
# … with 6,326 more rows
```
…
.panel2-demo3-auto[

```
# A tibble: 6,336 × 2
# Groups:   MonthOfRelease [12]
   MonthOfRelease DomesticGross
   <ord>                  <dbl>
 1 Apr                858373000
 2 May                241071802
 3 Apr                459005868
 4 Dec                936662225
 5 Apr                678815482
 6 May                309420425
 7 Nov                229024295
 8 Oct                200074175
 9 Jul                        0
10 Dec                515202542
# … with 6,326 more rows
```
…
---

# Interactive Donut Plot

---

# Interactive visualizations using `Plotly`

.scroll-box-16[

```r
midwest %>% as_tibble()
# A tibble: 437 × 28
     PID county    state  area poptotal popden…¹ popwh…² popbl…³ popam…⁴ popas…⁵
   <int> <chr>     <chr> <dbl>    <int>    <dbl>   <int>   <int>   <int>   <int>
 1   561 ADAMS     IL    0.052    66090    1271.   63917    1702      98     249
 2   562 ALEXANDER IL    0.014    10626     759     7054    3496      19      48
 3   563 BOND      IL    0.022    14991     681.   14477     429      35      16
 4   564 BOONE     IL    0.017    30806    1812.   29344     127      46     150
 5   565 BROWN     IL    0.018     5836     324.    5264     547      14       5
 6   566 BUREAU    IL    0.05     35688     714.   35157      50      65     195
 7   567 CALHOUN   IL    0.017     5322     313.    5298       1       8      15
 8   568 CARROLL   IL    0.027    16805     622.   16519     111      30      61
 9   569 CASS      IL    0.024    13437     560.   13384      16       8      23
10   570 CHAMPAIGN IL    0.058   173025    2983.  146506   16559     331    8033
# … with 427 more rows, 18 more variables: popother <int>, percwhite <dbl>,
#   percblack <dbl>, percamerindan <dbl>, percasian <dbl>, percother <dbl>,
#   popadults <int>, perchsd <dbl>, percollege <dbl>, percprof <dbl>,
#   poppovertyknown <int>, percpovertyknown <dbl>, percbelowpoverty <dbl>,
#   percchildbelowpovert <dbl>, percadultpoverty <dbl>,
#   percelderlypoverty <dbl>, inmetro <int>, category <chr>, and abbreviated
#   variable names ¹​popdensity, ²​popwhite, ³​popblack, ⁴​popamerindian, …
```
…
