Advanced String Manipulation
…
count: false
 
## How are the hashtags used?
.panel1-demo1-auto[

```r
*tweets
```
]
 
.panel2-demo1-auto[

```
# A tibble: 1,512 × 22
    ...1 text        favor…¹ favor…² reply…³ created             trunc…⁴ reply…⁵
   <dbl> <chr>       <lgl>     <dbl> <chr>   <dttm>              <lgl>   <lgl>  
 1     1 "My econom… FALSE      9214 <NA>    2016-08-08 15:20:44 FALSE   NA     
 2     2 "Join me i… FALSE      6981 <NA>    2016-08-08 13:28:20 FALSE   NA     
 3     3 "#ICYMI: \… FALSE     15724 <NA>    2016-08-08 00:05:54 FALSE   NA     
 4     4 "Michael M… FALSE     19837 <NA>    2016-08-07 23:09:08 FALSE   NA     
 5     5 "The media… FALSE     34051 <NA>    2016-08-07 21:31:46 FALSE   NA     
 6     6 "I see whe… FALSE     29831 <NA>    2016-08-07 13:49:29 FALSE   NA     
 7     7 "Thank you… FALSE     19223 <NA>    2016-08-07 02:19:37 FALSE   NA     
 8     8 ".@Larry_K… FALSE     19543 <NA>    2016-08-07 02:03:39 FALSE   NA     
 9     9 "I am not … FALSE     75488 <NA>    2016-08-07 01:53:45 FALSE   NA     
10    10 "#CrookedH… FALSE     23661 <NA>    2016-08-06 20:04:08 FALSE   NA     
# … with 1,502 more rows, 14 more variables: id <dbl>, replyToUID <dbl>,
#   statusSource <chr>, source <chr>, screenName <chr>, retweetCount <dbl>,
#   isRetweet <lgl>, retweeted <lgl>, longitude <dbl>, latitude <dbl>,
#   text2 <chr>, charCount <dbl>, nWords <dbl>, nRealWords <dbl>, and
#   abbreviated variable names ¹​favorited, ²​favoriteCount, ³​replyToSN,
#   ⁴​truncated, ⁵​replyToSID
```
…
## How are the hashtags used?
.panel1-demo1-auto[

```r
tweets %>%
* mutate(ct = str_count(text, "#"))
```
]
 
.panel2-demo1-auto[

```
# A tibble: 1,512 × 23
    ...1 text        favor…¹ favor…² reply…³ created             trunc…⁴ reply…⁵
   <dbl> <chr>       <lgl>     <dbl> <chr>   <dttm>              <lgl>   <lgl>  
 1     1 "My econom… FALSE      9214 <NA>    2016-08-08 15:20:44 FALSE   NA     
 2     2 "Join me i… FALSE      6981 <NA>    2016-08-08 13:28:20 FALSE   NA     
 3     3 "#ICYMI: \… FALSE     15724 <NA>    2016-08-08 00:05:54 FALSE   NA     
 4     4 "Michael M… FALSE     19837 <NA>    2016-08-07 23:09:08 FALSE   NA     
 5     5 "The media… FALSE     34051 <NA>    2016-08-07 21:31:46 FALSE   NA     
 6     6 "I see whe… FALSE     29831 <NA>    2016-08-07 13:49:29 FALSE   NA     
 7     7 "Thank you… FALSE     19223 <NA>    2016-08-07 02:19:37 FALSE   NA     
 8     8 ".@Larry_K… FALSE     19543 <NA>    2016-08-07 02:03:39 FALSE   NA     
 9     9 "I am not … FALSE     75488 <NA>    2016-08-07 01:53:45 FALSE   NA     
10    10 "#CrookedH… FALSE     23661 <NA>    2016-08-06 20:04:08 FALSE   NA     
# … with 1,502 more rows, 15 more variables: id <dbl>, replyToUID <dbl>,
#   statusSource <chr>, source <chr>, screenName <chr>, retweetCount <dbl>,
#   isRetweet <lgl>, retweeted <lgl>, longitude <dbl>, latitude <dbl>,
#   text2 <chr>, charCount <dbl>, nWords <dbl>, nRealWords <dbl>, ct <int>, and
#   abbreviated variable names ¹​favorited, ²​favoriteCount, ³​replyToSN,
#   ⁴​truncated, ⁵​replyToSID
```
…
## How are the hashtags used?
.panel1-demo1-auto[

```r
tweets %>%
  mutate(ct = str_count(text, "#")) %>%
* select(ct, text)
```
]
 
.panel2-demo1-auto[

```
# A tibble: 1,512 × 2
      ct text                                                                   
   <int> <chr>                                                                  
 1     0 "My economic policy speech will be carried live at 12:15 P.M. Enjoy!"  
 2     0 "Join me in Fayetteville, North Carolina tomorrow evening at 6pm. Tick…
 3     1 "#ICYMI: \"Will Media Apologize to Trump?\" https://t.co/ia7rKBmioA"   
 4     0 "Michael Morell, the lightweight former Acting Director of C.I.A., and…
 5     0 "The media is going crazy. They totally distort so many things on purp…
 6     0 "I see where Mayor Stephanie Rawlings-Blake of Baltimore is pushing Cr…
 7     2 "Thank you Windham, New Hampshire! #TrumpPence16 #MAGA https://t.co/ZL…
 8     0 ".@Larry_Kudlow - 'Donald Trump Is the middle-class growth candidate'\…
 9     0 "I am not just running against Crooked Hillary Clinton, I am running a…
10     2 "#CrookedHillary is not fit to be our next president! #TrumpPence16 \r…
# … with 1,502 more rows
```
…
---

# Get the tweets with links

```r
tweets %>% 
  filter(str_detect(text, link)) %>% 
  select(text)
# A tibble: 517 × 1
   text                                                                         
   <chr>                                                                        
 1 "Join me in Fayetteville, North Carolina tomorrow evening at 6pm. Tickets no…
 2 "#ICYMI: \"Will Media Apologize to Trump?\" https://t.co/ia7rKBmioA"         
 3 "Thank you Windham, New Hampshire! #TrumpPence16 #MAGA https://t.co/ZL4Q01Q4…
 4 ".@Larry_Kudlow - 'Donald Trump Is the middle-class growth candidate'\r\nhtt…
 5 "#CrookedHillary is not fit to be our next president! #TrumpPence16 \r\nhttp…
 6 "Good luck #TeamUSA\r\n#OpeningCeremony #Rio2016 https://t.co/mS8qsQpJPh"    
 7 "'Trump is right about violent crime: It\x92s on the rise in major cities'\r…
 8 "Thank you Green Bay, Wisconsin! Governor @Mike_Pence and I will be back soo…
 9 "DON'T LET HILLARY CLINTON DO IT AGAIN!\r\n#TrumpPence16\r\nhttps://t.co/1mG…
10 "Thank you Des Moines, Iowa! Governor @Mike_Pence and I appreciate your supp…
# … with 507 more rows
```
…
