Functions
…
## Tokenization
.panel1-demo-auto[

```r
text_data %>%
* unnest_tokens(output = word,
*               input = text,
*               token = "words")
```
]
 
.panel2-demo-auto[

```
# A tibble: 109 × 1
   word 
   <chr>
 1 he   
 2 had  
 3 come 
 4 a    
 5 long 
 6 way  
 7 to   
 8 this 
 9 blue 
10 lawn 
# ℹ 99 more rows
```
…
count: false
 
## Visualizing top words in Amazon Musical Instruments Reviews
.panel1-demo1-auto[

```r
*musical_instr_reviews
```
]
 
.panel2-demo1-auto[

```
# A tibble: 10,261 × 3
   reviewerName                                        reviewText                                                  ratingOverall
   <chr>                                               <chr>                                                               <dbl>
 1 "cassandra tu \"Yeah, well, that's just like, u..." not much to write about here but it does exactly what it i…             5
 2 "Jake"                                              the product does exactly as it should and is quite afforda…             5
 3 "Rick Bennette \"Rick Bennette\""                   the primary job of this device is to block the breath that…             5
 4 "RustyBill \"Sunday Rocker\""                       nice windscreen protects my mxl mic and prevents pops only…             5
 5 "SEAN MASLANKA"                                     this pop filter is great it looks and performs like a stud…             5
 6 "Bill Lewey \"blewey\""                             so good that i bought another one love the heavy cord and …             5
 7 "Brian"                                             i have used monster cables for years and with good reason …             5
 8 "Fender Guy \"Rick\""                               i now use this cable to run from the output of my pedal ch…             3
 9 "G. Thomas \"Tom\""                                 perfect for my epiphone sheraton ii monster cables are wel…             5
10 "Kurt Robair"                                       monster makes the best cables and a lifetime warranty does…             5
# ℹ 10,251 more rows
```
…
## Visualizing top words in Amazon Musical Instruments Reviews
.panel1-demo1-auto[

```r
musical_instr_reviews %>%
* select(reviewText)
```
]
 
.panel2-demo1-auto[

```
# A tibble: 10,261 × 1
   reviewText                                                                                                                   
   <chr>                                                                                                                        
 1 not much to write about here but it does exactly what it is supposed to filters out the pop sounds now my recordings are muc…
 2 the product does exactly as it should and is quite affordable i did not realized it was double screened until it arrived so …
 3 the primary job of this device is to block the breath that would otherwise produce a popping sound while allowing your voice…
 4 nice windscreen protects my mxl mic and prevents pops only thing is that the gooseneck is only marginally able to hold the s…
 5 this pop filter is great it looks and performs like a studio filter if you are recording vocals this will eliminate the pops…
 6 so good that i bought another one love the heavy cord and gold connectors bass sounds great i just learned last night how to…
 7 i have used monster cables for years and with good reason the lifetime warranty is worth the price alone simple fact cables …
 8 i now use this cable to run from the output of my pedal chain to the input of my fender amp after i bought monster cable to …
 9 perfect for my epiphone sheraton ii monster cables are well constructed i have several and never had any problems with any o…
10 monster makes the best cables and a lifetime warranty doesnt hurt either this isnt their top of the line series but it works…
# ℹ 10,251 more rows
```
…
## Visualizing top words in Amazon Musical Instruments Reviews
.panel1-demo1-auto[

```r
musical_instr_reviews %>%
  select(reviewText) %>%
* unnest_tokens(output = word,
*               input = reviewText)
```
]
 
.panel2-demo1-auto[

```
# A tibble: 953,806 × 1
   word   
   <chr>  
 1 not    
 2 much   
 3 to     
 4 write  
 5 about  
 6 here   
 7 but    
 8 it     
 9 does   
10 exactly
# ℹ 953,796 more rows
```
…
```r
musical_instr_reviews %>%
  select(reviewText) %>%
  unnest_tokens(output = word,
                input = reviewText) %>%
* anti_join(stop_words)
```
]
 
.panel2-demo1-auto[

```
# A tibble: 323,400 × 1
   word      
   <chr>     
 1 write     
 2 supposed  
 3 filters   
 4 pop       
 5 sounds    
 6 recordings
 7 crisp     
 8 lowest    
 9 prices    
10 pop       
# ℹ 323,390 more rows
```
…
```r
musical_instr_reviews %>%
  select(reviewText) %>%
  unnest_tokens(output = word,
                input = reviewText) %>%
  anti_join(stop_words) %>%
* count(word, sort=TRUE)
```
]
 
.panel2-demo1-auto[

```
# A tibble: 18,531 × 2
   word                n
   <chr>           <int>
 1 guitar           5612
 2 exclamationmark  3854
 3 sound            3607
 4 strings          3420
 5 pedal            2579
 6 price            2240
 7 amp              2116
 8 quality          1810
 9 nice             1707
10 time             1586
# ℹ 18,521 more rows
```
…
```r
musical_instr_reviews %>%
  select(reviewText) %>%
  unnest_tokens(output = word,
                input = reviewText) %>%
  anti_join(stop_words) %>%
  count(word, sort=TRUE) %>%
* top_n(25)
```
]
 
.panel2-demo1-auto[

```
# A tibble: 25 × 2
   word                n
   <chr>           <int>
 1 guitar           5612
 2 exclamationmark  3854
 3 sound            3607
 4 strings          3420
 5 pedal            2579
 6 price            2240
 7 amp              2116
 8 quality          1810
 9 nice             1707
10 time             1586
# ℹ 15 more rows
```
…
```r
library(wordcloud)
library(reshape2)  # for acast function
set.seed(123)  # for reproducibility

*musical_instr_reviews
```
]
 
.panel2-demo2-auto[

```
# A tibble: 10,261 × 3
   reviewerName                                        reviewText                                                  ratingOverall
   <chr>                                               <chr>                                                               <dbl>
 1 "cassandra tu \"Yeah, well, that's just like, u..." not much to write about here but it does exactly what it i…             5
 2 "Jake"                                              the product does exactly as it should and is quite afforda…             5
 3 "Rick Bennette \"Rick Bennette\""                   the primary job of this device is to block the breath that…             5
 4 "RustyBill \"Sunday Rocker\""                       nice windscreen protects my mxl mic and prevents pops only…             5
 5 "SEAN MASLANKA"                                     this pop filter is great it looks and performs like a stud…             5
 6 "Bill Lewey \"blewey\""                             so good that i bought another one love the heavy cord and …             5
 7 "Brian"                                             i have used monster cables for years and with good reason …             5
 8 "Fender Guy \"Rick\""                               i now use this cable to run from the output of my pedal ch…             3
 9 "G. Thomas \"Tom\""                                 perfect for my epiphone sheraton ii monster cables are wel…             5
10 "Kurt Robair"                                       monster makes the best cables and a lifetime warranty does…             5
# ℹ 10,251 more rows
```
…
```r
library(wordcloud)
library(reshape2)  # for acast function
set.seed(123)  # for reproducibility

musical_instr_reviews %>%
* select(reviewText)
```
]
 
.panel2-demo2-auto[

```
# A tibble: 10,261 × 1
   reviewText                                                                                                                   
   <chr>                                                                                                                        
 1 not much to write about here but it does exactly what it is supposed to filters out the pop sounds now my recordings are muc…
 2 the product does exactly as it should and is quite affordable i did not realized it was double screened until it arrived so …
 3 the primary job of this device is to block the breath that would otherwise produce a popping sound while allowing your voice…
 4 nice windscreen protects my mxl mic and prevents pops only thing is that the gooseneck is only marginally able to hold the s…
 5 this pop filter is great it looks and performs like a studio filter if you are recording vocals this will eliminate the pops…
 6 so good that i bought another one love the heavy cord and gold connectors bass sounds great i just learned last night how to…
 7 i have used monster cables for years and with good reason the lifetime warranty is worth the price alone simple fact cables …
 8 i now use this cable to run from the output of my pedal chain to the input of my fender amp after i bought monster cable to …
 9 perfect for my epiphone sheraton ii monster cables are well constructed i have several and never had any problems with any o…
10 monster makes the best cables and a lifetime warranty doesnt hurt either this isnt their top of the line series but it works…
# ℹ 10,251 more rows
```
…
musical_instr_reviews %>%
  select(reviewText) %>%
* unnest_tokens(output=word,
*               input=reviewText)
```
]
 
.panel2-demo2-auto[

```
# A tibble: 953,806 × 1
   word   
   <chr>  
 1 not    
 2 much   
 3 to     
 4 write  
 5 about  
 6 here   
 7 but    
 8 it     
 9 does   
10 exactly
# ℹ 953,796 more rows
```
…
musical_instr_reviews %>%
  select(reviewText) %>%
  unnest_tokens(output=word,
                input=reviewText) %>%
* anti_join(stop_words)
```
]
 
.panel2-demo2-auto[

```
# A tibble: 323,400 × 1
   word      
   <chr>     
 1 write     
 2 supposed  
 3 filters   
 4 pop       
 5 sounds    
 6 recordings
 7 crisp     
 8 lowest    
 9 prices    
10 pop       
# ℹ 323,390 more rows
```
…
musical_instr_reviews %>%
  select(reviewText) %>%
  unnest_tokens(output=word,
                input=reviewText) %>%
  anti_join(stop_words) %>%
* inner_join(get_sentiments("bing"))
```
]
 
.panel2-demo2-auto[

```
# A tibble: 51,765 × 2
   word       sentiment
   <chr>      <chr>    
 1 crisp      positive 
 2 affordable positive 
 3 bonus      positive 
 4 smell      negative 
 5 smelling   negative 
 6 expensive  negative 
 7 pleasing   positive 
 8 secure     positive 
 9 nice       positive 
10 marginally negative 
# ℹ 51,755 more rows
```
…
musical_instr_reviews %>%
  select(reviewText) %>%
  unnest_tokens(output=word,
                input=reviewText) %>%
  anti_join(stop_words) %>%
  inner_join(get_sentiments("bing")) %>%
* count(word, sentiment, sort = TRUE)
```
]
 
.panel2-demo2-auto[

```
# A tibble: 2,303 × 3
   word      sentiment     n
   <chr>     <chr>     <int>
 1 nice      positive   1707
 2 easy      positive   1482
 3 love      positive    990
 4 recommend positive    912
 5 cheap     negative    854
 6 pretty    positive    800
 7 perfect   positive    745
 8 fine      positive    742
 9 hard      negative    625
10 clean     positive    614
# ℹ 2,293 more rows
```
…
