Factor manipulations
…
−+

15:00

---

class: middle

## `gss_cat`

.bq.font80[A sample of data from the General Social Survey, a long-running US survey conducted by NORC at the University of Chicago.]

```
# A tibble: 21,483 × 9
    year marital         age race  rincome        partyid    relig denom tvhours
   <int> <fct>         <int> <fct> <fct>          <fct>      <fct> <fct>   <int>
 1  2000 Never married    26 White $8000 to 9999  Ind,near … Prot… Sout…      12
 2  2000 Divorced         48 White $8000 to 9999  Not str r… Prot… Bapt…      NA
 3  2000 Widowed          67 White Not applicable Independe… Prot… No d…       2
 4  2000 Never married    39 White Not applicable Ind,near … Orth… Not …       4
 5  2000 Divorced         25 White Not applicable Not str d… None  Not …       1
 6  2000 Married          25 White $20000 - 24999 Strong de… Prot… Sout…      NA
 7  2000 Never married    36 White $25000 or more Not str r… Chri… Not …       3
 8  2000 Divorced         44 White $7000 to 7999  Ind,near … Prot… Luth…      NA
 9  2000 Married          44 White $25000 or more Not str d… Prot… Other       0
10  2000 Married          47 White $25000 or more Strong re… Prot… Sout…       3
# ℹ 21,473 more rows
```
…
count: false
 
## Which religions watch the least TV?
.panel1-gss-religion-tv-auto[

```r
*gss_cat
```
]
 
.panel2-gss-religion-tv-auto[

```
# A tibble: 21,483 × 9
    year marital         age race  rincome        partyid    relig denom tvhours
   <int> <fct>         <int> <fct> <fct>          <fct>      <fct> <fct>   <int>
 1  2000 Never married    26 White $8000 to 9999  Ind,near … Prot… Sout…      12
 2  2000 Divorced         48 White $8000 to 9999  Not str r… Prot… Bapt…      NA
 3  2000 Widowed          67 White Not applicable Independe… Prot… No d…       2
 4  2000 Never married    39 White Not applicable Ind,near … Orth… Not …       4
 5  2000 Divorced         25 White Not applicable Not str d… None  Not …       1
 6  2000 Married          25 White $20000 - 24999 Strong de… Prot… Sout…      NA
 7  2000 Never married    36 White $25000 or more Not str r… Chri… Not …       3
 8  2000 Divorced         44 White $7000 to 7999  Ind,near … Prot… Luth…      NA
 9  2000 Married          44 White $25000 or more Not str d… Prot… Other       0
10  2000 Married          47 White $25000 or more Strong re… Prot… Sout…       3
# ℹ 21,473 more rows
```
…
## Which religions watch the least TV?
.panel1-gss-religion-tv-auto[

```r
gss_cat %>%
* tidyr::drop_na(tvhours)
```
]
 
.panel2-gss-religion-tv-auto[

```
# A tibble: 11,337 × 9
    year marital         age race  rincome        partyid    relig denom tvhours
   <int> <fct>         <int> <fct> <fct>          <fct>      <fct> <fct>   <int>
 1  2000 Never married    26 White $8000 to 9999  Ind,near … Prot… Sout…      12
 2  2000 Widowed          67 White Not applicable Independe… Prot… No d…       2
 3  2000 Never married    39 White Not applicable Ind,near … Orth… Not …       4
 4  2000 Divorced         25 White Not applicable Not str d… None  Not …       1
 5  2000 Never married    36 White $25000 or more Not str r… Chri… Not …       3
 6  2000 Married          44 White $25000 or more Not str d… Prot… Other       0
 7  2000 Married          47 White $25000 or more Strong re… Prot… Sout…       3
 8  2000 Married          53 White $25000 or more Not str d… Prot… Other       2
 9  2000 Married          52 White $25000 or more Strong de… Prot… Sout…       1
10  2000 Divorced         52 White $25000 or more Ind,near … None  Not …       1
# ℹ 11,327 more rows
```
…
## Which religions watch the least TV?
.panel1-gss-religion-tv-auto[

```r
gss_cat %>%
  tidyr::drop_na(tvhours) %>%
* group_by(relig)
```
]
 
.panel2-gss-religion-tv-auto[

```
# A tibble: 11,337 × 9
# Groups:   relig [15]
    year marital         age race  rincome        partyid    relig denom tvhours
   <int> <fct>         <int> <fct> <fct>          <fct>      <fct> <fct>   <int>
 1  2000 Never married    26 White $8000 to 9999  Ind,near … Prot… Sout…      12
 2  2000 Widowed          67 White Not applicable Independe… Prot… No d…       2
 3  2000 Never married    39 White Not applicable Ind,near … Orth… Not …       4
 4  2000 Divorced         25 White Not applicable Not str d… None  Not …       1
 5  2000 Never married    36 White $25000 or more Not str r… Chri… Not …       3
 6  2000 Married          44 White $25000 or more Not str d… Prot… Other       0
 7  2000 Married          47 White $25000 or more Strong re… Prot… Sout…       3
 8  2000 Married          53 White $25000 or more Not str d… Prot… Other       2
 9  2000 Married          52 White $25000 or more Strong de… Prot… Sout…       1
10  2000 Divorced         52 White $25000 or more Ind,near … None  Not …       1
# ℹ 11,327 more rows
```
…
count: false
 
## Use levels() to access a factor’s levels
.panel1-levels-auto[

```r
*gss_cat
```
]
 
.panel2-levels-auto[

```
# A tibble: 21,483 × 9
    year marital         age race  rincome        partyid    relig denom tvhours
   <int> <fct>         <int> <fct> <fct>          <fct>      <fct> <fct>   <int>
 1  2000 Never married    26 White $8000 to 9999  Ind,near … Prot… Sout…      12
 2  2000 Divorced         48 White $8000 to 9999  Not str r… Prot… Bapt…      NA
 3  2000 Widowed          67 White Not applicable Independe… Prot… No d…       2
 4  2000 Never married    39 White Not applicable Ind,near … Orth… Not …       4
 5  2000 Divorced         25 White Not applicable Not str d… None  Not …       1
 6  2000 Married          25 White $20000 - 24999 Strong de… Prot… Sout…      NA
 7  2000 Never married    36 White $25000 or more Not str r… Chri… Not …       3
 8  2000 Divorced         44 White $7000 to 7999  Ind,near … Prot… Luth…      NA
 9  2000 Married          44 White $25000 or more Not str d… Prot… Other       0
10  2000 Married          47 White $25000 or more Strong re… Prot… Sout…       3
# ℹ 21,473 more rows
```
…
count: false
 
## Recoding partyid with fct_recode()
.panel1-fct-recode-partyid-auto[

```r
*gss_cat
```
]
 
.panel2-fct-recode-partyid-auto[

```
# A tibble: 21,483 × 9
    year marital         age race  rincome        partyid    relig denom tvhours
   <int> <fct>         <int> <fct> <fct>          <fct>      <fct> <fct>   <int>
 1  2000 Never married    26 White $8000 to 9999  Ind,near … Prot… Sout…      12
 2  2000 Divorced         48 White $8000 to 9999  Not str r… Prot… Bapt…      NA
 3  2000 Widowed          67 White Not applicable Independe… Prot… No d…       2
 4  2000 Never married    39 White Not applicable Ind,near … Orth… Not …       4
 5  2000 Divorced         25 White Not applicable Not str d… None  Not …       1
 6  2000 Married          25 White $20000 - 24999 Strong de… Prot… Sout…      NA
 7  2000 Never married    36 White $25000 or more Not str r… Chri… Not …       3
 8  2000 Divorced         44 White $7000 to 7999  Ind,near … Prot… Luth…      NA
 9  2000 Married          44 White $25000 or more Not str d… Prot… Other       0
10  2000 Married          47 White $25000 or more Strong re… Prot… Sout…       3
# ℹ 21,473 more rows
```
…
## Recoding partyid with fct_recode()
.panel1-fct-recode-partyid-auto[

```r
gss_cat %>%
* drop_na(tvhours)
```
]
 
.panel2-fct-recode-partyid-auto[

```
# A tibble: 11,337 × 9
    year marital         age race  rincome        partyid    relig denom tvhours
   <int> <fct>         <int> <fct> <fct>          <fct>      <fct> <fct>   <int>
 1  2000 Never married    26 White $8000 to 9999  Ind,near … Prot… Sout…      12
 2  2000 Widowed          67 White Not applicable Independe… Prot… No d…       2
 3  2000 Never married    39 White Not applicable Ind,near … Orth… Not …       4
 4  2000 Divorced         25 White Not applicable Not str d… None  Not …       1
 5  2000 Never married    36 White $25000 or more Not str r… Chri… Not …       3
 6  2000 Married          44 White $25000 or more Not str d… Prot… Other       0
 7  2000 Married          47 White $25000 or more Strong re… Prot… Sout…       3
 8  2000 Married          53 White $25000 or more Not str d… Prot… Other       2
 9  2000 Married          52 White $25000 or more Strong de… Prot… Sout…       1
10  2000 Divorced         52 White $25000 or more Ind,near … None  Not …       1
# ℹ 11,327 more rows
```
…
## Recoding partyid with fct_recode()
.panel1-fct-recode-partyid-auto[

```r
gss_cat %>%
  drop_na(tvhours) %>%
* select(partyid, tvhours)
```
]
 
.panel2-fct-recode-partyid-auto[

```
# A tibble: 11,337 × 2
   partyid            tvhours
   <fct>                <int>
 1 Ind,near rep            12
 2 Independent              2
 3 Ind,near rep             4
 4 Not str democrat         1
 5 Not str republican       3
 6 Not str democrat         0
 7 Strong republican        3
 8 Not str democrat         2
 9 Strong democrat          1
10 Ind,near dem             1
# ℹ 11,327 more rows
```
…
.panel2-fct-recode-partyid-auto[

```
# A tibble: 11,337 × 2
   partyid               tvhours
   <fct>                   <int>
 1 Independent, near rep      12
 2 Independent                 2
 3 Independent, near rep       4
 4 Democrat, weak              1
 5 Republican, weak            3
 6 Democrat, weak              0
 7 Republican, strong          3
 8 Democrat, weak              2
 9 Democrat, strong            1
10 Independent, near dem       1
# ℹ 11,327 more rows
```
…
.panel2-fct-recode-partyid-auto[

```
# A tibble: 11,337 × 2
# Groups:   partyid [10]
   partyid               tvhours
   <fct>                   <int>
 1 Independent, near rep      12
 2 Independent                 2
 3 Independent, near rep       4
 4 Democrat, weak              1
 5 Republican, weak            3
 6 Democrat, weak              0
 7 Republican, strong          3
 8 Democrat, weak              2
 9 Democrat, strong            1
10 Independent, near dem       1
# ℹ 11,327 more rows
```
…
count: false
 
## Collapsing partyid: fct_collapse()
.panel1-fct-collapse-partyid-auto[

```r
*gss_cat
```
]
 
.panel2-fct-collapse-partyid-auto[

```
# A tibble: 21,483 × 9
    year marital         age race  rincome        partyid    relig denom tvhours
   <int> <fct>         <int> <fct> <fct>          <fct>      <fct> <fct>   <int>
 1  2000 Never married    26 White $8000 to 9999  Ind,near … Prot… Sout…      12
 2  2000 Divorced         48 White $8000 to 9999  Not str r… Prot… Bapt…      NA
 3  2000 Widowed          67 White Not applicable Independe… Prot… No d…       2
 4  2000 Never married    39 White Not applicable Ind,near … Orth… Not …       4
 5  2000 Divorced         25 White Not applicable Not str d… None  Not …       1
 6  2000 Married          25 White $20000 - 24999 Strong de… Prot… Sout…      NA
 7  2000 Never married    36 White $25000 or more Not str r… Chri… Not …       3
 8  2000 Divorced         44 White $7000 to 7999  Ind,near … Prot… Luth…      NA
 9  2000 Married          44 White $25000 or more Not str d… Prot… Other       0
10  2000 Married          47 White $25000 or more Strong re… Prot… Sout…       3
# ℹ 21,473 more rows
```
…
## Collapsing partyid: fct_collapse()
.panel1-fct-collapse-partyid-auto[

```r
gss_cat %>%
* drop_na(tvhours)
```
]
 
.panel2-fct-collapse-partyid-auto[

```
# A tibble: 11,337 × 9
    year marital         age race  rincome        partyid    relig denom tvhours
   <int> <fct>         <int> <fct> <fct>          <fct>      <fct> <fct>   <int>
 1  2000 Never married    26 White $8000 to 9999  Ind,near … Prot… Sout…      12
 2  2000 Widowed          67 White Not applicable Independe… Prot… No d…       2
 3  2000 Never married    39 White Not applicable Ind,near … Orth… Not …       4
 4  2000 Divorced         25 White Not applicable Not str d… None  Not …       1
 5  2000 Never married    36 White $25000 or more Not str r… Chri… Not …       3
 6  2000 Married          44 White $25000 or more Not str d… Prot… Other       0
 7  2000 Married          47 White $25000 or more Strong re… Prot… Sout…       3
 8  2000 Married          53 White $25000 or more Not str d… Prot… Other       2
 9  2000 Married          52 White $25000 or more Strong de… Prot… Sout…       1
10  2000 Divorced         52 White $25000 or more Ind,near … None  Not …       1
# ℹ 11,327 more rows
```
…
## Collapsing partyid: fct_collapse()
.panel1-fct-collapse-partyid-auto[

```r
gss_cat %>%
  drop_na(tvhours) %>%
* select(partyid, tvhours)
```
]
 
.panel2-fct-collapse-partyid-auto[

```
# A tibble: 11,337 × 2
   partyid            tvhours
   <fct>                <int>
 1 Ind,near rep            12
 2 Independent              2
 3 Ind,near rep             4
 4 Not str democrat         1
 5 Not str republican       3
 6 Not str democrat         0
 7 Strong republican        3
 8 Not str democrat         2
 9 Strong democrat          1
10 Ind,near dem             1
# ℹ 11,327 more rows
```
…
.panel2-fct-collapse-partyid-auto[

```
# A tibble: 11,337 × 2
   partyid      tvhours
   <fct>          <int>
 1 conservative      12
 2 Independent        2
 3 conservative       4
 4 liberal            1
 5 conservative       3
 6 liberal            0
 7 conservative       3
 8 liberal            2
 9 liberal            1
10 liberal            1
# ℹ 11,327 more rows
```
…
.panel2-fct-collapse-partyid-auto[

```
# A tibble: 11,337 × 2
# Groups:   partyid [6]
   partyid      tvhours
   <fct>          <int>
 1 conservative      12
 2 Independent        2
 3 conservative       4
 4 liberal            1
 5 conservative       3
 6 liberal            0
 7 conservative       3
 8 liberal            2
 9 liberal            1
10 liberal            1
# ℹ 11,327 more rows
```
…
