Advanced Data Visualization Tools
…
.footnote[Source: https://usafacts.org/visualizations/coronavirus-covid-19-spread-map/]

---

# Application: Combining datasets

We need to add the covid info to the state polygon data set

```r
states <- map_data("state")
covid_data <- left_join(states, covid_clean, by = c("region" = "state"))
```

```
# A tibble: 15,537 × 12
   long   lat group order region  subregion x7_day_avg_cases x7_day_avg_deaths
  <dbl> <dbl> <dbl> <int> <chr>   <chr>                <int>             <int>
1 -87.5  30.4     1     1 alabama <NA>                     0                 0
2 -87.5  30.4     1     2 alabama <NA>                     0                 0
3 -87.5  30.4     1     3 alabama <NA>                     0                 0
4 -87.5  30.3     1     4 alabama <NA>                     0                 0
5 -87.6  30.3     1     5 alabama <NA>                     0                 0
# ℹ 15,532 more rows
# ℹ 4 more variables: cases <dbl>, deaths <dbl>,
#   x7_day_avg_hospitalizations <int>,
#   x7_day_avg_hospitalizations_per_100k <dbl>
```
…
