Advanced Web Scraping
…
count: false
 
## Tidy further
.panel1-demo3-auto[

```r
*df_movies
```
]
 
.panel2-demo3-auto[

```
# A tibble: 6,400 × 6
   ...1  ReleaseDate  Movie        ProductionBudget DomesticGross WorldwideGross
   <chr> <chr>        <chr>        <chr>            <chr>         <chr>         
 1 1     Dec 9, 2022  Avatar: The… $460,000,000     $684,075,767  $2,317,514,386
 2 2     Apr 23, 2019 Avengers: E… $400,000,000     $858,373,000  $2,788,912,285
 3 3     May 20, 2011 Pirates of … $379,000,000     $241,071,802  $1,045,713,802
 4 4     Apr 22, 2015 Avengers: A… $365,000,000     $459,005,868  $1,395,316,979
 5 5     May 17, 2023 Fast X       $340,000,000     $146,126,015  $714,582,312  
 6 6     Dec 16, 2015 Star Wars E… $306,000,000     $936,662,225  $2,064,615,817
 7 7     Apr 25, 2018 Avengers: I… $300,000,000     $678,815,482  $2,048,359,754
 8 8     May 24, 2007 Pirates of … $300,000,000     $309,420,425  $960,996,492  
 9 9     Nov 13, 2017 Justice Lea… $300,000,000     $229,024,295  $655,945,209  
10 10    Jun 28, 2023 Indiana Jon… $300,000,000     $174,480,468  $381,561,976  
# ℹ 6,390 more rows
```
…
## Tidy further
.panel1-demo3-auto[

```r
df_movies %>%
* rename(ID = `...1`)
```
]
 
.panel2-demo3-auto[

```
# A tibble: 6,400 × 6
   ID    ReleaseDate  Movie        ProductionBudget DomesticGross WorldwideGross
   <chr> <chr>        <chr>        <chr>            <chr>         <chr>         
 1 1     Dec 9, 2022  Avatar: The… $460,000,000     $684,075,767  $2,317,514,386
 2 2     Apr 23, 2019 Avengers: E… $400,000,000     $858,373,000  $2,788,912,285
 3 3     May 20, 2011 Pirates of … $379,000,000     $241,071,802  $1,045,713,802
 4 4     Apr 22, 2015 Avengers: A… $365,000,000     $459,005,868  $1,395,316,979
 5 5     May 17, 2023 Fast X       $340,000,000     $146,126,015  $714,582,312  
 6 6     Dec 16, 2015 Star Wars E… $306,000,000     $936,662,225  $2,064,615,817
 7 7     Apr 25, 2018 Avengers: I… $300,000,000     $678,815,482  $2,048,359,754
 8 8     May 24, 2007 Pirates of … $300,000,000     $309,420,425  $960,996,492  
 9 9     Nov 13, 2017 Justice Lea… $300,000,000     $229,024,295  $655,945,209  
10 10    Jun 28, 2023 Indiana Jon… $300,000,000     $174,480,468  $381,561,976  
# ℹ 6,390 more rows
```
…
.panel2-demo3-auto[

```
# A tibble: 6,400 × 8
   ID    ReleaseDate Movie         ProductionBudget DomesticGross WorldwideGross
   <chr> <date>      <chr>                    <dbl>         <dbl>          <dbl>
 1 1     2022-12-09  Avatar: The …        460000000     684075767     2317514386
 2 2     2019-04-23  Avengers: En…        400000000     858373000     2788912285
 3 3     2011-05-20  Pirates of t…        379000000     241071802     1045713802
 4 4     2015-04-22  Avengers: Ag…        365000000     459005868     1395316979
 5 5     2023-05-17  Fast X               340000000     146126015      714582312
 6 6     2015-12-16  Star Wars Ep…        306000000     936662225     2064615817
 7 7     2018-04-25  Avengers: In…        300000000     678815482     2048359754
 8 8     2007-05-24  Pirates of t…        300000000     309420425      960996492
 9 9     2017-11-13  Justice Leag…        300000000     229024295      655945209
10 10    2023-06-28  Indiana Jone…        300000000     174480468      381561976
# ℹ 6,390 more rows
# ℹ 2 more variables: MonthOfRelease <ord>, YearOfRelease <dbl>
```
…
.panel2-demo3-auto[

```
# A tibble: 6,400 × 2
   MonthOfRelease DomesticGross
   <ord>                  <dbl>
 1 Dec                684075767
 2 Apr                858373000
 3 May                241071802
 4 Apr                459005868
 5 May                146126015
 6 Dec                936662225
 7 Apr                678815482
 8 May                309420425
 9 Nov                229024295
10 Jun                174480468
# ℹ 6,390 more rows
```
…
.panel2-demo3-auto[

```
# A tibble: 6,400 × 2
# Groups:   MonthOfRelease [12]
   MonthOfRelease DomesticGross
   <ord>                  <dbl>
 1 Dec                684075767
 2 Apr                858373000
 3 May                241071802
 4 Apr                459005868
 5 May                146126015
 6 Dec                936662225
 7 Apr                678815482
 8 May                309420425
 9 Nov                229024295
10 Jun                174480468
# ℹ 6,390 more rows
```
…
class: middle

# Interactive Donut Plot

---

class: middle

# Interactive visualizations using `ggplotly`

.scroll-box-16[

```r
midwest %>% as_tibble()
# A tibble: 437 × 28
     PID county  state  area poptotal popdensity popwhite popblack popamerindian
   <int> <chr>   <chr> <dbl>    <int>      <dbl>    <int>    <int>         <int>
 1   561 ADAMS   IL    0.052    66090      1271.    63917     1702            98
 2   562 ALEXAN… IL    0.014    10626       759      7054     3496            19
 3   563 BOND    IL    0.022    14991       681.    14477      429            35
 4   564 BOONE   IL    0.017    30806      1812.    29344      127            46
 5   565 BROWN   IL    0.018     5836       324.     5264      547            14
 6   566 BUREAU  IL    0.05     35688       714.    35157       50            65
 7   567 CALHOUN IL    0.017     5322       313.     5298        1             8
 8   568 CARROLL IL    0.027    16805       622.    16519      111            30
 9   569 CASS    IL    0.024    13437       560.    13384       16             8
10   570 CHAMPA… IL    0.058   173025      2983.   146506    16559           331
# ℹ 427 more rows
# ℹ 19 more variables: popasian <int>, popother <int>, percwhite <dbl>,
#   percblack <dbl>, percamerindan <dbl>, percasian <dbl>, percother <dbl>,
#   popadults <int>, perchsd <dbl>, percollege <dbl>, percprof <dbl>,
#   poppovertyknown <int>, percpovertyknown <dbl>, percbelowpoverty <dbl>,
#   percchildbelowpovert <dbl>, percadultpoverty <dbl>,
#   percelderlypoverty <dbl>, inmetro <int>, category <chr>
```
…
