Web Scraping
…
[[2]]
# A tibble: 3 × 2
  Symbol Meaning                                                                
  <chr>  <chr>                                                                  
1 ~      Currently active world champions(driver competes in 2023 and has won t…
2 *      Currently active drivers(driver competes in 2023 and has not won the W…
3 ^      Former world champions(driver has won the World Drivers' Championship …

[[3]]
# A tibble: 868 × 11
   `Driver name`     Nationality    `Seasons competed` `Drivers' Championships`
   <chr>             <chr>          <chr>              <chr>                   
 1 Carlo Abate       Italy          1962–1963          0                       
 2 George Abecassis  United Kingdom 1951–1952          0                       
 3 Kenny Acheson     United Kingdom 1983, 1985         0                       
 4 Andrea de Adamich Italy          1968, 1970–1973    0                       
 5 Philippe Adams    Belgium        1994               0                       
 6 Walt Ader         United States  1950               0                       
 7 Kurt Adolff       West Germany   1953               0                       
 8 Fred Agabashian   United States  1950–1957          0                       
 9 Kurt Ahrens Jr.   West Germany   1966–1969          0                       
10 Jack Aitken       United Kingdom 2020               0                       
# ℹ 858 more rows
# ℹ 7 more variables: `Race entries` <chr>, `Race starts` <chr>,
#   `Pole positions` <chr>, `Race wins` <chr>, Podiums <chr>,
#   `Fastest laps` <chr>, `Points[a]` <chr>

[[4]]
# A tibble: 42 × 7
   Country    Totaldrivers Champions Championships `Race wins` `First driver(s)`
   <chr>      <chr>        <chr>     <chr>         <chr>       <chr>            
 1 Argentina… 25           1(Fangio… 5(1951, 1954… "38\n(Fang… Juan Manuel Fang…
 2 Australia… 18           2(Brabha… 4(1959, 1960… "43\n(Brab… Tony Gaze(1952 B…
 3 Austriade… 16           2(Rindt,… 4(1970, 1975… "41\n(Rind… Jochen Rindt(196…
 4 Belgiumde… 24           0         0             "11\n(Ickx… Johnny Claes(195…
 5 Brazildet… 32           3(Fittip… 8(1972, 1974… "101\n(Fit… Chico Landi(1951…
 6 Canadadet… 15           1(J. Vil… 1(1997)       "17\n(G. V… Peter Ryan(1961 …
 7 Chile      1            0         0             "0"         Eliseo Salazar(1…
 8 China      1            0         0             "0"         Zhou Guanyu(2022…
 9 Colombiad… 3            0         0             "7\n(Monto… Ricardo Londoño(…
10 Czech Rep… 1            0         0             "0"         Tomáš Enge(2001 …
# ℹ 32 more rows
# ℹ 1 more variable: `Most recent driver(s)/Current driver(s)` <chr>
…
## Demo: read tables into R
.panel1-demo1-auto[

```r
bow("https://en.wikipedia.org/wiki/List_of_Formula_One_drivers") %>%
  scrape() %>%
  html_table() %>%
* purrr::pluck(3)
```
]
 
.panel2-demo1-auto[

```
# A tibble: 868 × 11
   `Driver name`     Nationality    `Seasons competed` `Drivers' Championships`
   <chr>             <chr>          <chr>              <chr>                   
 1 Carlo Abate       Italy          1962–1963          0                       
 2 George Abecassis  United Kingdom 1951–1952          0                       
 3 Kenny Acheson     United Kingdom 1983, 1985         0                       
 4 Andrea de Adamich Italy          1968, 1970–1973    0                       
 5 Philippe Adams    Belgium        1994               0                       
 6 Walt Ader         United States  1950               0                       
 7 Kurt Adolff       West Germany   1953               0                       
 8 Fred Agabashian   United States  1950–1957          0                       
 9 Kurt Ahrens Jr.   West Germany   1966–1969          0                       
10 Jack Aitken       United Kingdom 2020               0                       
# ℹ 858 more rows
# ℹ 7 more variables: `Race entries` <chr>, `Race starts` <chr>,
#   `Pole positions` <chr>, `Race wins` <chr>, Podiums <chr>,
#   `Fastest laps` <chr>, `Points[a]` <chr>
```
…
