Intro to Classification
…
class: middle

# 3. Apply the recipe to the data set
.code120[

```r
fire_scaled <- bake(fire_recipe, fire_raw)
```
]

.code110[

```
# A tibble: 243 × 3
   temperature   ffmc classes 
         <dbl>  <dbl> <fct>   
 1      -0.869 -0.846 not fire
 2      -0.869 -0.937 not fire
 3      -1.70  -2.14  not fire
 4      -1.97  -3.43  not fire
 5      -1.42  -0.909 not fire
 6      -0.318  0.332 fire    
 7       0.234  0.722 fire    
 8      -0.593  0.610 fire    
 9      -1.97  -1.74  not fire
10      -1.14  -0.324 not fire
# … with 233 more rows
```
…
