More Data Visualization Tools
…
.footnote[Source: https://usafacts.org/visualizations/coronavirus-covid-19-spread-map/]

---

# Combining datasets

We need to add the covid info to the state polygon data set

```r
states <- map_data("state")
covid_data <- left_join(states, covid_clean, by = c("region" = "state"))
```

```
# A tibble: 15,537 × 12
   long   lat group order region  subreg…¹ x7_da…² x7_da…³  cases deaths x7_da…⁴
  <dbl> <dbl> <dbl> <int> <chr>   <chr>      <int>   <int>  <dbl>  <dbl>   <int>
1 -87.5  30.4     1     1 alabama <NA>           1      11 1.51e6  20322      68
2 -87.5  30.4     1     2 alabama <NA>           1      11 1.51e6  20322      68
3 -87.5  30.4     1     3 alabama <NA>           1      11 1.51e6  20322      68
4 -87.5  30.3     1     4 alabama <NA>           1      11 1.51e6  20322      68
5 -87.6  30.3     1     5 alabama <NA>           1      11 1.51e6  20322      68
# … with 15,532 more rows, 1 more variable:
#   x7_day_avg_hospitalizations_per_100k <dbl>, and abbreviated variable names
#   ¹​subregion, ²​x7_day_avg_cases, ³​x7_day_avg_deaths,
#   ⁴​x7_day_avg_hospitalizations
```
…
