Data wrangling with dplyr
…
]

---

class: middle

# *arrange()*

.yellow-h[Order rows from smallest to largest]

```r
arrange(babynames, n)
# A tibble: 1,924,665 × 5
    year sex   name          n      prop
   <dbl> <chr> <chr>     <int>     <dbl>
 1  1880 F     Adelle        5 0.0000512
 2  1880 F     Adina         5 0.0000512
 3  1880 F     Adrienne      5 0.0000512
 4  1880 F     Albertine     5 0.0000512
 5  1880 F     Alys          5 0.0000512
 6  1880 F     Ana           5 0.0000512
 7  1880 F     Araminta      5 0.0000512
 8  1880 F     Arthur        5 0.0000512
 9  1880 F     Birtha        5 0.0000512
10  1880 F     Bulah         5 0.0000512
# … with 1,924,655 more rows
```

---

class: middle

# *desc()*

Changes ordering from largest to smallest.

```r
*arrange(babynames, desc(n))
# A tibble: 1,924,665 × 5
    year sex   name        n   prop
   <dbl> <chr> <chr>   <int>  <dbl>
 1  1947 F     Linda   99686 0.0548
 2  1948 F     Linda   96209 0.0552
 3  1947 M     James   94756 0.0510
 4  1957 M     Michael 92695 0.0424
 5  1947 M     Robert  91642 0.0493
 6  1949 F     Linda   91016 0.0518
 7  1956 M     Michael 90620 0.0423
 8  1958 M     Michael 90520 0.0420
 9  1948 M     James   88588 0.0497
10  1954 M     Michael 88514 0.0428
# … with 1,924,655 more rows
```

---

class: middle

# Most common names in 1990

```r
babynames %>%
* filter(year == 1990) %>%
* arrange(desc(prop))
# A tibble: 24,719 × 5
    year sex   name            n   prop
   <dbl> <chr> <chr>       <int>  <dbl>
 1  1990 M     Michael     65282 0.0303
 2  1990 M     Christopher 52332 0.0243
 3  1990 F     Jessica     46475 0.0226
 4  1990 F     Ashley      45558 0.0222
 5  1990 M     Matthew     44800 0.0208
 6  1990 M     Joshua      43216 0.0201
 7  1990 F     Brittany    36538 0.0178
 8  1990 F     Amanda      34408 0.0168
 9  1990 M     Daniel      33815 0.0157
10  1990 M     David       33742 0.0157
# … with 24,709 more rows
```
…
---

class: middle

# Using *group_by()*

```r
babynames %>% 
* group_by(year, sex)
# A tibble: 1,924,665 × 5
# Groups:   year, sex [276]
    year sex   name          n   prop
   <dbl> <chr> <chr>     <int>  <dbl>
 1  1880 F     Mary       7065 0.0724
 2  1880 F     Anna       2604 0.0267
 3  1880 F     Emma       2003 0.0205
 4  1880 F     Elizabeth  1939 0.0199
 5  1880 F     Minnie     1746 0.0179
 6  1880 F     Margaret   1578 0.0162
 7  1880 F     Ida        1472 0.0151
 8  1880 F     Alice      1414 0.0145
 9  1880 F     Bertha     1320 0.0135
10  1880 F     Sarah      1288 0.0132
# … with 1,924,655 more rows
```

---

class: middle

# Using *group_by()* along with *summarize()*

```r
babynames %>%
* group_by(year) %>%
* summarise(total = sum(n))
# A tibble: 138 × 2
    year  total
   <dbl>  <int>
 1  1880 201484
 2  1881 192696
 3  1882 221533
 4  1883 216946
 5  1884 243462
 6  1885 240854
 7  1886 255317
 8  1887 247394
 9  1888 299473
10  1889 288946
# … with 128 more rows
```
…
---

class: middle

# *top_n()* 

Most common name in each year

```r
babynames %>%
* group_by(year) %>%
* top_n(1, prop)
# A tibble: 138 × 6
# Groups:   year [138]
    year sex   name      n   prop percent
   <dbl> <chr> <chr> <int>  <dbl>   <dbl>
 1  1880 M     John   9655 0.0815    8.15
 2  1881 M     John   8769 0.0810    8.10
 3  1882 M     John   9557 0.0783    7.83
 4  1883 M     John   8894 0.0791    7.91
 5  1884 M     John   9388 0.0765    7.65
 6  1885 M     John   8756 0.0755    7.55
 7  1886 M     John   9026 0.0758    7.58
 8  1887 M     John   8110 0.0742    7.42
 9  1888 M     John   9247 0.0712    7.12
10  1889 M     John   8548 0.0718    7.18
# … with 128 more rows
```
…
---

class: middle

# *summarize()* vs. *mutate()*

*mutate()* : transforms all variable values but preserves the variable length (by group)

```r
gapminder %>%
  group_by(continent) %>%
* mutate(meanPop = mean(pop)/1000000)
# A tibble: 1,704 × 7
# Groups:   continent [5]
   country     continent  year lifeExp      pop gdpPercap meanPop
   <fct>       <fct>     <int>   <dbl>    <int>     <dbl>   <dbl>
 1 Afghanistan Asia       1952    28.8  8425333      779.    77.0
 2 Afghanistan Asia       1957    30.3  9240934      821.    77.0
 3 Afghanistan Asia       1962    32.0 10267083      853.    77.0
 4 Afghanistan Asia       1967    34.0 11537966      836.    77.0
 5 Afghanistan Asia       1972    36.1 13079460      740.    77.0
 6 Afghanistan Asia       1977    38.4 14880372      786.    77.0
 7 Afghanistan Asia       1982    39.9 12881816      978.    77.0
 8 Afghanistan Asia       1987    40.8 13867957      852.    77.0
 9 Afghanistan Asia       1992    41.7 16317921      649.    77.0
10 Afghanistan Asia       1997    41.8 22227415      635.    77.0
# … with 1,694 more rows
```
…
