More Data Wrangling
…
---

class: middle

# *left_join()*

```r
flights2 %>% 
  left_join(airlines)
# A tibble: 336,776 × 9
    year month   day  hour origin dest  tailnum carrier name                    
   <int> <int> <int> <dbl> <chr>  <chr> <chr>   <chr>   <chr>                   
 1  2013     1     1     5 EWR    IAH   N14228  UA      United Air Lines Inc.   
 2  2013     1     1     5 LGA    IAH   N24211  UA      United Air Lines Inc.   
 3  2013     1     1     5 JFK    MIA   N619AA  AA      American Airlines Inc.  
 4  2013     1     1     5 JFK    BQN   N804JB  B6      JetBlue Airways         
 5  2013     1     1     6 LGA    ATL   N668DN  DL      Delta Air Lines Inc.    
 6  2013     1     1     5 EWR    ORD   N39463  UA      United Air Lines Inc.   
 7  2013     1     1     6 EWR    FLL   N516JB  B6      JetBlue Airways         
 8  2013     1     1     6 LGA    IAD   N829AS  EV      ExpressJet Airlines Inc.
 9  2013     1     1     6 JFK    MCO   N593JB  B6      JetBlue Airways         
10  2013     1     1     6 LGA    ORD   N3ALAA  AA      American Airlines Inc.  
# … with 336,766 more rows
```
…
---

class: middle

# Keys: controlling how the tables are matched

```r
flights2 %>% left_join(planes, by = "tailnum")
# A tibble: 336,776 × 16
   year.x month   day  hour origin dest  tailnum carrier year.y type     manuf…¹
    <int> <int> <int> <dbl> <chr>  <chr> <chr>   <chr>    <int> <chr>    <chr>  
 1   2013     1     1     5 EWR    IAH   N14228  UA        1999 Fixed w… BOEING 
 2   2013     1     1     5 LGA    IAH   N24211  UA        1998 Fixed w… BOEING 
 3   2013     1     1     5 JFK    MIA   N619AA  AA        1990 Fixed w… BOEING 
 4   2013     1     1     5 JFK    BQN   N804JB  B6        2012 Fixed w… AIRBUS 
 5   2013     1     1     6 LGA    ATL   N668DN  DL        1991 Fixed w… BOEING 
 6   2013     1     1     5 EWR    ORD   N39463  UA        2012 Fixed w… BOEING 
 7   2013     1     1     6 EWR    FLL   N516JB  B6        2000 Fixed w… AIRBUS…
 8   2013     1     1     6 LGA    IAD   N829AS  EV        1998 Fixed w… CANADA…
 9   2013     1     1     6 JFK    MCO   N593JB  B6        2004 Fixed w… AIRBUS 
10   2013     1     1     6 LGA    ORD   N3ALAA  AA          NA <NA>     <NA>   
# … with 336,766 more rows, 5 more variables: model <chr>, engines <int>,
#   seats <int>, speed <int>, engine <chr>, and abbreviated variable name
#   ¹​manufacturer
```

---

class: middle

# Matching keys

```r
flights2 %>% left_join(airports, by = c("origin" = "faa"))
# A tibble: 336,776 × 15
    year month   day  hour origin dest  tailnum carrier name     lat   lon   alt
   <int> <int> <int> <dbl> <chr>  <chr> <chr>   <chr>   <chr>  <dbl> <dbl> <dbl>
 1  2013     1     1     5 EWR    IAH   N14228  UA      Newar…  40.7 -74.2    18
 2  2013     1     1     5 LGA    IAH   N24211  UA      La Gu…  40.8 -73.9    22
 3  2013     1     1     5 JFK    MIA   N619AA  AA      John …  40.6 -73.8    13
 4  2013     1     1     5 JFK    BQN   N804JB  B6      John …  40.6 -73.8    13
 5  2013     1     1     6 LGA    ATL   N668DN  DL      La Gu…  40.8 -73.9    22
 6  2013     1     1     5 EWR    ORD   N39463  UA      Newar…  40.7 -74.2    18
 7  2013     1     1     6 EWR    FLL   N516JB  B6      Newar…  40.7 -74.2    18
 8  2013     1     1     6 LGA    IAD   N829AS  EV      La Gu…  40.8 -73.9    22
 9  2013     1     1     6 JFK    MCO   N593JB  B6      John …  40.6 -73.8    13
10  2013     1     1     6 LGA    ORD   N3ALAA  AA      La Gu…  40.8 -73.9    22
# … with 336,766 more rows, and 3 more variables: tz <dbl>, dst <chr>,
#   tzone <chr>
```
…
