Data Imports
…
---

# Looking for `problems`

List of potential problems parsing the file

```r
problems(desserts)
# A tibble: 556 × 5
     row   col expected        actual         file 
   <int> <int> <chr>           <chr>          <chr>
 1     2     6 date in ISO8601 17 August 2010 ""   
 2     3     6 date in ISO8601 17 August 2010 ""   
 3     4     6 date in ISO8601 17 August 2010 ""   
 4     5     4 a number        N/A            ""   
 5     5     6 date in ISO8601 17 August 2010 ""   
 6     6     6 date in ISO8601 17 August 2010 ""   
 7     7     4 a number        N/A            ""   
 8     7     6 date in ISO8601 17 August 2010 ""   
 9     8     6 date in ISO8601 17 August 2010 ""   
10     9     4 a number        N/A            ""   
# … with 546 more rows
```

---

# Date formatting 

.code100[

```
# A tibble: 556 × 5
    row   col expected        actual         file 
  <int> <int> <chr>           <chr>          <chr>
1     2     6 date in ISO8601 17 August 2010 ""   
2     3     6 date in ISO8601 17 August 2010 ""   
3     4     6 date in ISO8601 17 August 2010 ""   
4     5     4 a number        N/A            ""   
5     5     6 date in ISO8601 17 August 2010 ""   
# … with 551 more rows
```
…
## No more `problems`

```r
problems(desserts)
# A tibble: 0 × 5
# … with 5 variables: row <int>, col <int>, expected <chr>, actual <chr>,
#   file <chr>
```

---

# The Dataset

```
# A tibble: 549 × 16
   series episode baker     technical result uk_airdate us_season us_airdate
    <dbl>   <dbl> <chr>         <dbl> <chr>  <date>         <dbl> <date>    
 1      1       1 Annetha           2 IN     2010-08-17        NA NA        
 2      1       1 David             3 IN     2010-08-17        NA NA        
 3      1       1 Edd               1 IN     2010-08-17        NA NA        
 4      1       1 Jasminder        NA IN     2010-08-17        NA NA        
 5      1       1 Jonathan          9 IN     2010-08-17        NA NA        
 6      1       1 Louise           NA IN     2010-08-17        NA NA        
 7      1       1 Miranda           8 IN     2010-08-17        NA NA        
 8      1       1 Ruth             NA IN     2010-08-17        NA NA        
 9      1       1 Lea              10 OUT    2010-08-17        NA NA        
10      1       1 Mark             NA OUT    2010-08-17        NA NA        
# … with 539 more rows, and 8 more variables: showstopper_chocolate <chr>,
#   showstopper_dessert <chr>, showstopper_fruit <chr>, showstopper_nut <chr>,
#   signature_chocolate <chr>, signature_dessert <chr>, signature_fruit <chr>,
#   signature_nut <chr>
```
…
Remember, it might help to look at the data first!

03:00

---

## More with forcats: `gss_cat`

A sample of data from the General Social Survey, a long-running US survey conducted by NORC at the University of Chicago.

.code100[

```
# A tibble: 21,483 × 9
    year marital         age race  rincome        partyid  relig  denom  tvhours
   <int> <fct>         <int> <fct> <fct>          <fct>    <fct>  <fct>    <int>
 1  2000 Never married    26 White $8000 to 9999  Ind,nea… Prote… South…      12
 2  2000 Divorced         48 White $8000 to 9999  Not str… Prote… Bapti…      NA
 3  2000 Widowed          67 White Not applicable Indepen… Prote… No de…       2
 4  2000 Never married    39 White Not applicable Ind,nea… Ortho… Not a…       4
 5  2000 Divorced         25 White Not applicable Not str… None   Not a…       1
 6  2000 Married          25 White $20000 - 24999 Strong … Prote… South…      NA
 7  2000 Never married    36 White $25000 or more Not str… Chris… Not a…       3
 8  2000 Divorced         44 White $7000 to 7999  Ind,nea… Prote… Luthe…      NA
 9  2000 Married          44 White $25000 or more Not str… Prote… Other        0
10  2000 Married          47 White $25000 or more Strong … Prote… South…       3
# … with 21,473 more rows
```
…
count: false
 
## Which religions watch the least TV?
.panel1-gss-religion-tv-auto[

```r
*gss_cat
```
]
 
.panel2-gss-religion-tv-auto[

```
# A tibble: 21,483 × 9
    year marital         age race  rincome        partyid  relig  denom  tvhours
   <int> <fct>         <int> <fct> <fct>          <fct>    <fct>  <fct>    <int>
 1  2000 Never married    26 White $8000 to 9999  Ind,nea… Prote… South…      12
 2  2000 Divorced         48 White $8000 to 9999  Not str… Prote… Bapti…      NA
 3  2000 Widowed          67 White Not applicable Indepen… Prote… No de…       2
 4  2000 Never married    39 White Not applicable Ind,nea… Ortho… Not a…       4
 5  2000 Divorced         25 White Not applicable Not str… None   Not a…       1
 6  2000 Married          25 White $20000 - 24999 Strong … Prote… South…      NA
 7  2000 Never married    36 White $25000 or more Not str… Chris… Not a…       3
 8  2000 Divorced         44 White $7000 to 7999  Ind,nea… Prote… Luthe…      NA
 9  2000 Married          44 White $25000 or more Not str… Prote… Other        0
10  2000 Married          47 White $25000 or more Strong … Prote… South…       3
# … with 21,473 more rows
```
…
## Which religions watch the least TV?
.panel1-gss-religion-tv-auto[

```r
gss_cat %>%
* drop_na(tvhours)
```
]
 
.panel2-gss-religion-tv-auto[

```
# A tibble: 11,337 × 9
    year marital         age race  rincome        partyid  relig   denom tvhours
   <int> <fct>         <int> <fct> <fct>          <fct>    <fct>   <fct>   <int>
 1  2000 Never married    26 White $8000 to 9999  Ind,nea… Protes… Sout…      12
 2  2000 Widowed          67 White Not applicable Indepen… Protes… No d…       2
 3  2000 Never married    39 White Not applicable Ind,nea… Orthod… Not …       4
 4  2000 Divorced         25 White Not applicable Not str… None    Not …       1
 5  2000 Never married    36 White $25000 or more Not str… Christ… Not …       3
 6  2000 Married          44 White $25000 or more Not str… Protes… Other       0
 7  2000 Married          47 White $25000 or more Strong … Protes… Sout…       3
 8  2000 Married          53 White $25000 or more Not str… Protes… Other       2
 9  2000 Married          52 White $25000 or more Strong … Protes… Sout…       1
10  2000 Divorced         52 White $25000 or more Ind,nea… None    Not …       1
# … with 11,327 more rows
```
…
## Which religions watch the least TV?
.panel1-gss-religion-tv-auto[

```r
gss_cat %>%
  drop_na(tvhours) %>%
* group_by(relig)
```
]
 
.panel2-gss-religion-tv-auto[

```
# A tibble: 11,337 × 9
# Groups:   relig [15]
    year marital         age race  rincome        partyid  relig   denom tvhours
   <int> <fct>         <int> <fct> <fct>          <fct>    <fct>   <fct>   <int>
 1  2000 Never married    26 White $8000 to 9999  Ind,nea… Protes… Sout…      12
 2  2000 Widowed          67 White Not applicable Indepen… Protes… No d…       2
 3  2000 Never married    39 White Not applicable Ind,nea… Orthod… Not …       4
 4  2000 Divorced         25 White Not applicable Not str… None    Not …       1
 5  2000 Never married    36 White $25000 or more Not str… Christ… Not …       3
 6  2000 Married          44 White $25000 or more Not str… Protes… Other       0
 7  2000 Married          47 White $25000 or more Strong … Protes… Sout…       3
 8  2000 Married          53 White $25000 or more Not str… Protes… Other       2
 9  2000 Married          52 White $25000 or more Strong … Protes… Sout…       1
10  2000 Divorced         52 White $25000 or more Ind,nea… None    Not …       1
# … with 11,327 more rows
```
…
count: false
 
## Recoding partyid
.panel1-fct-recode-partyid-auto[

```r
*gss_cat
```
]
 
.panel2-fct-recode-partyid-auto[

```
# A tibble: 21,483 × 9
    year marital         age race  rincome        partyid  relig  denom  tvhours
   <int> <fct>         <int> <fct> <fct>          <fct>    <fct>  <fct>    <int>
 1  2000 Never married    26 White $8000 to 9999  Ind,nea… Prote… South…      12
 2  2000 Divorced         48 White $8000 to 9999  Not str… Prote… Bapti…      NA
 3  2000 Widowed          67 White Not applicable Indepen… Prote… No de…       2
 4  2000 Never married    39 White Not applicable Ind,nea… Ortho… Not a…       4
 5  2000 Divorced         25 White Not applicable Not str… None   Not a…       1
 6  2000 Married          25 White $20000 - 24999 Strong … Prote… South…      NA
 7  2000 Never married    36 White $25000 or more Not str… Chris… Not a…       3
 8  2000 Divorced         44 White $7000 to 7999  Ind,nea… Prote… Luthe…      NA
 9  2000 Married          44 White $25000 or more Not str… Prote… Other        0
10  2000 Married          47 White $25000 or more Strong … Prote… South…       3
# … with 21,473 more rows
```
…
## Recoding partyid
.panel1-fct-recode-partyid-auto[

```r
gss_cat %>%
* drop_na(tvhours)
```
]
 
.panel2-fct-recode-partyid-auto[

```
# A tibble: 11,337 × 9
    year marital         age race  rincome        partyid  relig   denom tvhours
   <int> <fct>         <int> <fct> <fct>          <fct>    <fct>   <fct>   <int>
 1  2000 Never married    26 White $8000 to 9999  Ind,nea… Protes… Sout…      12
 2  2000 Widowed          67 White Not applicable Indepen… Protes… No d…       2
 3  2000 Never married    39 White Not applicable Ind,nea… Orthod… Not …       4
 4  2000 Divorced         25 White Not applicable Not str… None    Not …       1
 5  2000 Never married    36 White $25000 or more Not str… Christ… Not …       3
 6  2000 Married          44 White $25000 or more Not str… Protes… Other       0
 7  2000 Married          47 White $25000 or more Strong … Protes… Sout…       3
 8  2000 Married          53 White $25000 or more Not str… Protes… Other       2
 9  2000 Married          52 White $25000 or more Strong … Protes… Sout…       1
10  2000 Divorced         52 White $25000 or more Ind,nea… None    Not …       1
# … with 11,327 more rows
```
…
## Recoding partyid
.panel1-fct-recode-partyid-auto[

```r
gss_cat %>%
  drop_na(tvhours) %>%
* select(partyid, tvhours)
```
]
 
.panel2-fct-recode-partyid-auto[

```
# A tibble: 11,337 × 2
   partyid            tvhours
   <fct>                <int>
 1 Ind,near rep            12
 2 Independent              2
 3 Ind,near rep             4
 4 Not str democrat         1
 5 Not str republican       3
 6 Not str democrat         0
 7 Strong republican        3
 8 Not str democrat         2
 9 Strong democrat          1
10 Ind,near dem             1
# … with 11,327 more rows
```
…
.panel2-fct-recode-partyid-auto[

```
# A tibble: 11,337 × 2
   partyid               tvhours
   <fct>                   <int>
 1 Independent, near rep      12
 2 Independent                 2
 3 Independent, near rep       4
 4 Democrat, weak              1
 5 Republican, weak            3
 6 Democrat, weak              0
 7 Republican, strong          3
 8 Democrat, weak              2
 9 Democrat, strong            1
10 Independent, near dem       1
# … with 11,327 more rows
```
…
.panel2-fct-recode-partyid-auto[

```
# A tibble: 11,337 × 2
# Groups:   partyid [10]
   partyid               tvhours
   <fct>                   <int>
 1 Independent, near rep      12
 2 Independent                 2
 3 Independent, near rep       4
 4 Democrat, weak              1
 5 Republican, weak            3
 6 Democrat, weak              0
 7 Republican, strong          3
 8 Democrat, weak              2
 9 Democrat, strong            1
10 Independent, near dem       1
# … with 11,327 more rows
```
…
count: false
 
## Collapsing partyid: fct_collapse()
.panel1-fct-collapse-partyid-auto[

```r
*gss_cat
```
]
 
.panel2-fct-collapse-partyid-auto[

```
# A tibble: 21,483 × 9
    year marital         age race  rincome        partyid  relig  denom  tvhours
   <int> <fct>         <int> <fct> <fct>          <fct>    <fct>  <fct>    <int>
 1  2000 Never married    26 White $8000 to 9999  Ind,nea… Prote… South…      12
 2  2000 Divorced         48 White $8000 to 9999  Not str… Prote… Bapti…      NA
 3  2000 Widowed          67 White Not applicable Indepen… Prote… No de…       2
 4  2000 Never married    39 White Not applicable Ind,nea… Ortho… Not a…       4
 5  2000 Divorced         25 White Not applicable Not str… None   Not a…       1
 6  2000 Married          25 White $20000 - 24999 Strong … Prote… South…      NA
 7  2000 Never married    36 White $25000 or more Not str… Chris… Not a…       3
 8  2000 Divorced         44 White $7000 to 7999  Ind,nea… Prote… Luthe…      NA
 9  2000 Married          44 White $25000 or more Not str… Prote… Other        0
10  2000 Married          47 White $25000 or more Strong … Prote… South…       3
# … with 21,473 more rows
```
…
## Collapsing partyid: fct_collapse()
.panel1-fct-collapse-partyid-auto[

```r
gss_cat %>%
* drop_na(tvhours)
```
]
 
.panel2-fct-collapse-partyid-auto[

```
# A tibble: 11,337 × 9
    year marital         age race  rincome        partyid  relig   denom tvhours
   <int> <fct>         <int> <fct> <fct>          <fct>    <fct>   <fct>   <int>
 1  2000 Never married    26 White $8000 to 9999  Ind,nea… Protes… Sout…      12
 2  2000 Widowed          67 White Not applicable Indepen… Protes… No d…       2
 3  2000 Never married    39 White Not applicable Ind,nea… Orthod… Not …       4
 4  2000 Divorced         25 White Not applicable Not str… None    Not …       1
 5  2000 Never married    36 White $25000 or more Not str… Christ… Not …       3
 6  2000 Married          44 White $25000 or more Not str… Protes… Other       0
 7  2000 Married          47 White $25000 or more Strong … Protes… Sout…       3
 8  2000 Married          53 White $25000 or more Not str… Protes… Other       2
 9  2000 Married          52 White $25000 or more Strong … Protes… Sout…       1
10  2000 Divorced         52 White $25000 or more Ind,nea… None    Not …       1
# … with 11,327 more rows
```
…
## Collapsing partyid: fct_collapse()
.panel1-fct-collapse-partyid-auto[

```r
gss_cat %>%
  drop_na(tvhours) %>%
* select(partyid, tvhours)
```
]
 
.panel2-fct-collapse-partyid-auto[

```
# A tibble: 11,337 × 2
   partyid            tvhours
   <fct>                <int>
 1 Ind,near rep            12
 2 Independent              2
 3 Ind,near rep             4
 4 Not str democrat         1
 5 Not str republican       3
 6 Not str democrat         0
 7 Strong republican        3
 8 Not str democrat         2
 9 Strong democrat          1
10 Ind,near dem             1
# … with 11,327 more rows
```
…
.panel2-fct-collapse-partyid-auto[

```
# A tibble: 11,337 × 2
   partyid      tvhours
   <fct>          <int>
 1 conservative      12
 2 Independent        2
 3 conservative       4
 4 liberal            1
 5 conservative       3
 6 liberal            0
 7 conservative       3
 8 liberal            2
 9 liberal            1
10 liberal            1
# … with 11,327 more rows
```
…
.panel2-fct-collapse-partyid-auto[

```
# A tibble: 11,337 × 2
# Groups:   partyid [6]
   partyid      tvhours
   <fct>          <int>
 1 conservative      12
 2 Independent        2
 3 conservative       4
 4 liberal            1
 5 conservative       3
 6 liberal            0
 7 conservative       3
 8 liberal            2
 9 liberal            1
10 liberal            1
# … with 11,327 more rows
```
…
