Iterations
…
---

# Quantiles from wide data
.scroll-box-20[

```r
energy_quant
# A tibble: 57 × 3
   building    percentile value
   <chr>       <chr>      <dbl>
 1 Sayles-Hill 5%             7
 2 Sayles-Hill 10%            8
 3 Sayles-Hill 15%            9
 4 Sayles-Hill 20%            9
 5 Sayles-Hill 25%            9
 6 Sayles-Hill 30%           10
 7 Sayles-Hill 35%           11
 8 Sayles-Hill 40%           11
 9 Sayles-Hill 45%           12
10 Sayles-Hill 50%           13
# … with 47 more rows
```
…
- Let’s get quantiles for every building and day of the week:

```r
energy_long_quant <- energy_long %>% 
  group_by(building, dayWeek) %>%
  summarize(value = quantile(energyKWH, probs = c(.1, .9), na.rm = TRUE)) 
```

--

.scroll-box-10[

```
# A tibble: 42 × 3
# Groups:   building, dayWeek [21]
   building                 dayWeek value
   <chr>                    <fct>   <dbl>
 1 Language_&_Dining_Center Mon      4.88
 2 Language_&_Dining_Center Mon     14.1 
 3 Language_&_Dining_Center Tues     4.5 
 4 Language_&_Dining_Center Tues    13.9 
 5 Language_&_Dining_Center Wed      4.5 
 6 Language_&_Dining_Center Wed     14.2 
 7 Language_&_Dining_Center Thurs    4.69
 8 Language_&_Dining_Center Thurs   13.7 
 9 Language_&_Dining_Center Fri      4.5 
10 Language_&_Dining_Center Fri     13.7 
# … with 32 more rows
```
…
- Need to add a percentile 

```r
energy_long_quant <- energy_long_quant %>%
* mutate(percentile = c(10,90))
```

--

.scroll-box-10[

```r
energy_long_quant
# A tibble: 42 × 4
# Groups:   building, dayWeek [21]
   building                 dayWeek value percentile
   <chr>                    <fct>   <dbl>      <dbl>
 1 Language_&_Dining_Center Mon      4.88         10
 2 Language_&_Dining_Center Mon     14.1          90
 3 Language_&_Dining_Center Tues     4.5          10
 4 Language_&_Dining_Center Tues    13.9          90
 5 Language_&_Dining_Center Wed      4.5          10
 6 Language_&_Dining_Center Wed     14.2          90
 7 Language_&_Dining_Center Thurs    4.69         10
 8 Language_&_Dining_Center Thurs   13.7          90
 9 Language_&_Dining_Center Fri      4.5          10
10 Language_&_Dining_Center Fri     13.7          90
# … with 32 more rows
```
…
# Quantiles from long data

For all quantiles in .out-t[p <- seq(0.05,0.95, by = 0.05))]

```r
energy_long_quant <- energy_long %>% 
  group_by(building, dayWeek) %>%
  summarize(value = quantile(energyKWH, probs = p, na.rm = TRUE))  %>%
  mutate(percentile = 100*p)
```
.scroll-box-10[

```
# A tibble: 399 × 4
# Groups:   building, dayWeek [21]
   building                 dayWeek value percentile
   <chr>                    <fct>   <dbl>      <dbl>
 1 Language_&_Dining_Center Mon      4.31          5
 2 Language_&_Dining_Center Mon      4.88         10
 3 Language_&_Dining_Center Mon      5.25         15
 4 Language_&_Dining_Center Mon      5.63         20
 5 Language_&_Dining_Center Mon      6            25
 6 Language_&_Dining_Center Mon      6.19         30
 7 Language_&_Dining_Center Mon      6.38         35
 8 Language_&_Dining_Center Mon      6.93         40
 9 Language_&_Dining_Center Mon      7.5          45
10 Language_&_Dining_Center Mon      8.43         50
# … with 389 more rows
```
…
